#VRML V1.0 ascii 

Coordinate3 { 
   point [ 
	5.108067 -0.752824 -0.099858,
	5.195184 -0.838506 -0.095924,
	5.396866 -0.841322 0.000000,
	5.539783 -0.803028 0.000000,
	5.682702 -0.764733 0.000000,
	5.825620 -0.726438 0.000000,
	5.968537 -0.688143 0.000000,
	6.082662 -0.542391 -0.111249,
	5.913641 -0.472506 -0.000000,
	5.773414 -0.510080 -0.000000,
	5.633186 -0.547654 -0.000000,
	5.492959 -0.585227 -0.000000,
	5.352732 -0.622801 -0.000000,
	5.212505 -0.660375 -0.000000,
	5.195184 -0.838506 0.095925,
	5.108065 -0.752823 0.099860,
	6.082662 -0.542391 0.111251,
	4.429428 -0.095549 -0.143480,
	4.371897 -0.153080 -0.265040,
	4.285958 -0.239019 -0.346438,
	4.184489 -0.340488 -0.375000,
	4.083019 -0.441957 -0.346438,
	3.997080 -0.527896 -0.265040,
	3.939549 -0.585428 -0.143480,
	4.025122 -0.711452 0.000000,
	4.130921 -0.817251 0.000000,
	4.236720 -0.923049 0.000000,
	4.342518 -1.028848 0.000000,
	4.448317 -1.134647 0.000000,
	4.554115 -1.240445 0.000000,
	4.659914 -1.346244 0.000000,
	4.765713 -1.452043 0.000000,
	4.871511 -1.557841 0.000000,
	4.977310 -1.663640 0.000000,
	5.083109 -1.769439 0.000000,
	5.188908 -1.875237 0.000000,
	5.294706 -1.981036 0.000000,
	5.400505 -2.086835 0.000000,
	5.506304 -2.192634 0.000000,
	5.612103 -2.298432 0.000000,
	5.717901 -2.404231 0.000000,
	5.823700 -2.510030 0.000000,
	5.929499 -2.615828 0.000000,
	6.035297 -2.721627 0.000000,
	6.141096 -2.827425 0.000000,
	6.246895 -2.933224 0.000000,
	6.352694 -3.039023 0.000000,
	6.458492 -3.144822 0.000000,
	6.564291 -3.250620 0.000000,
	6.670090 -3.356419 0.000000,
	6.775888 -3.462218 0.000000,
	6.881687 -3.568017 0.000000,
	6.987485 -3.673815 0.000000,
	7.093284 -3.779614 0.000000,
	7.203796 -3.848432 -0.145747,
	7.225788 -3.757730 -0.264496,
	7.278460 -3.641550 -0.345227,
	7.368927 -3.524928 -0.375001,
	7.485548 -3.434460 -0.345228,
	7.601729 -3.381788 -0.264499,
	7.692434 -3.359798 -0.145751,
	7.621784 -3.247452 0.000000,
	7.514155 -3.139823 0.000000,
	7.406527 -3.032194 0.000000,
	7.298897 -2.924565 0.000000,
	7.191268 -2.816936 0.000000,
	7.083640 -2.709307 0.000000,
	6.976011 -2.601679 0.000000,
	6.868382 -2.494050 0.000000,
	6.760753 -2.386421 0.000000,
	6.653124 -2.278792 0.000000,
	6.545495 -2.171163 0.000000,
	6.437866 -2.063534 0.000000,
	6.330237 -1.955905 0.000000,
	6.222608 -1.848277 0.000000,
	6.114979 -1.740648 0.000000,
	6.007350 -1.633019 0.000000,
	5.899722 -1.525390 0.000000,
	5.792092 -1.417761 0.000000,
	5.684464 -1.310133 0.000000,
	5.576835 -1.202504 0.000000,
	5.469206 -1.094875 0.000000,
	5.361577 -0.987246 0.000000,
	4.968507 -0.594176 0.000000,
	4.864736 -0.490405 0.000000,
	4.760965 -0.386635 0.000000,
	4.657195 -0.282864 0.000000,
	4.553424 -0.179094 0.000000,
	3.939549 -0.585428 0.143480,
	3.997080 -0.527897 0.265040,
	4.083019 -0.441957 0.346438,
	4.184489 -0.340488 0.375000,
	4.285958 -0.239019 0.346438,
	4.371897 -0.153080 0.265040,
	4.429428 -0.095549 0.143480,
	7.692433 -3.359796 0.145747,
	7.601730 -3.381788 0.264495,
	7.485551 -3.434460 0.345226,
	7.368931 -3.524927 0.374999,
	7.278463 -3.641547 0.345225,
	7.225790 -3.757727 0.264497,
	7.203800 -3.848431 0.145750,
	4.337757 0.025884 0.000000,
	4.216590 0.115777 0.000000,
	4.087240 0.193439 0.000000,
	3.950853 0.257965 0.000000,
	3.808786 0.308779 0.000000,
	3.662406 0.345327 0.000000,
	3.513164 0.367441 0.000000,
	3.362477 0.346397 -0.143480,
	3.362477 0.265035 -0.265040,
	3.362477 0.143499 -0.346438,
	3.362477 0.000000 -0.375000,
	3.362477 -0.143499 -0.346438,
	3.362477 -0.265035 -0.265040,
	3.362477 -0.346397 -0.143480,
	3.516099 -0.390198 -0.000000,
	3.663840 -0.434945 -0.000000,
	3.799949 -0.507773 -0.000000,
	3.362477 -0.346396 0.143480,
	3.362477 -0.265035 0.265040,
	3.362477 -0.143499 0.346438,
	3.362477 0.000000 0.375000,
	3.362477 0.143499 0.346438,
	3.362477 0.265035 0.265040,
	3.362477 0.346397 0.143480,
	3.209637 -0.375000 0.000000,
	3.056797 -0.375000 0.000000,
	2.903957 -0.375000 0.000000,
	2.751117 -0.375000 0.000000,
	2.598278 -0.375000 0.000000,
	2.445438 -0.375000 0.000000,
	2.292598 -0.375000 0.000000,
	2.139758 -0.375000 0.000000,
	1.986918 -0.375000 0.000000,
	1.834078 -0.375000 0.000000,
	1.681238 -0.375000 0.000000,
	1.528398 -0.375000 0.000000,
	1.375558 -0.375000 0.000000,
	1.222719 -0.375000 0.000000,
	1.069879 -0.375000 0.000000,
	0.917039 -0.375000 0.000000,
	0.764199 -0.375000 0.000000,
	0.611359 -0.375000 0.000000,
	0.458519 -0.375000 0.000000,
	0.305679 -0.375000 0.000000,
	0.152839 -0.375000 0.000000,
	0.000000 -0.346397 0.143480,
	0.000000 -0.265035 0.265040,
	0.000000 -0.143499 0.346438,
	-0.000000 0.000000 0.375000,
	-0.000000 0.143499 0.346438,
	-0.000000 0.265035 0.265040,
	-0.000000 0.346397 0.143480,
	0.152840 0.375000 0.000000,
	0.305680 0.375000 0.000000,
	0.458520 0.375000 0.000000,
	0.611359 0.375000 0.000000,
	0.764199 0.375000 0.000000,
	0.917039 0.375000 0.000000,
	1.069879 0.375000 0.000000,
	1.222719 0.375000 0.000000,
	1.375559 0.375000 0.000000,
	1.528399 0.375000 0.000000,
	1.681238 0.375000 0.000000,
	1.834078 0.375000 0.000000,
	1.986918 0.375000 0.000000,
	2.139758 0.375000 0.000000,
	2.292598 0.375000 0.000000,
	2.445438 0.375000 0.000000,
	2.598278 0.375000 0.000000,
	2.751118 0.375000 0.000000,
	2.903958 0.375000 0.000000,
	3.056798 0.375000 0.000000,
	3.209637 0.375000 0.000000,
	-0.000000 0.346397 -0.143480,
	-0.000000 0.265035 -0.265040,
	-0.000000 0.143499 -0.346438,
	-0.000000 0.000000 -0.375000,
	0.000000 -0.143499 -0.346438,
	0.000000 -0.265035 -0.265040,
	0.000000 -0.346397 -0.143480,
	6.053868 -0.434932 -0.000000,
	6.111455 -0.649849 0.000000,
	5.253948 -0.879617 0.000000,
	5.072278 -0.697949 -0.000000,
	3.919323 -0.605653 0.000000,
	7.199082 -3.885412 0.000000,
	7.729413 -3.355081 0.000000,
	4.449654 -0.075323 0.000000,
	3.362477 0.375000 0.000000,
	3.362477 -0.375000 -0.000000,
	0.000000 -0.375000 0.000000,
	-0.000000 0.375000 0.000000,
	5.441225 -0.774712 -0.094663,
	5.461083 -0.653076 -0.097253,
	5.578854 -0.734173 -0.096751,
	5.599501 -0.611674 -0.094826,
	5.312543 -0.813005 -0.092310,
	5.330876 -0.696133 -0.101236,
	5.720966 -0.691141 -0.099311,
	5.740055 -0.569196 -0.091809,
	5.230033 -0.745427 -0.108490,
	5.871606 -0.636949 -0.104994,
	5.870958 -0.526379 -0.086230,
	5.441225 -0.774709 0.094667,
	5.461083 -0.653075 0.097255,
	5.312543 -0.813004 0.092312,
	5.330875 -0.696131 0.101237,
	5.578854 -0.734173 0.096754,
	5.599501 -0.611673 0.094828,
	5.720966 -0.691141 0.099313,
	5.740054 -0.569196 0.091811,
	5.871606 -0.636949 0.104996,
	5.870958 -0.526378 0.086232,
	5.230032 -0.745427 0.108491,
	5.365619 -2.020483 -0.127163,
	5.360781 -1.923669 -0.240337,
	5.380109 -1.802184 -0.324302,
	5.415371 -1.664201 -0.369094,
	5.456525 -1.519883 -0.369117,
	5.492298 -1.380858 -0.323758,
	5.511738 -1.258484 -0.238409,
	5.505745 -1.161724 -0.124734,
	5.612647 -1.269658 -0.126904,
	5.719695 -1.377645 -0.128802,
	5.617804 -1.367342 -0.240684,
	5.259648 -1.914429 -0.127338,
	5.827039 -1.485375 -0.129495,
	5.724473 -1.475546 -0.241935,
	5.598272 -1.489730 -0.324913,
	5.934464 -1.592963 -0.129789,
	5.831507 -1.583296 -0.242518,
	5.704783 -1.597778 -0.325526,
	5.562772 -1.628005 -0.369351,
	5.153631 -1.808349 -0.127470,
	5.254689 -1.817174 -0.240665,
	5.471635 -2.126540 -0.127077,
	5.466972 -2.030014 -0.240211,
	5.486455 -1.908907 -0.324151,
	5.521791 -1.771486 -0.368986,
	6.041901 -1.700484 -0.129940,
	5.938668 -1.690814 -0.242808,
	5.811600 -1.705353 -0.325828,
	5.669297 -1.735565 -0.369480,
	5.577655 -2.232598 -0.126997,
	5.573172 -2.136361 -0.240091,
	5.592817 -2.015574 -0.324030,
	5.628272 -1.878555 -0.368913,
	6.149332 -1.807970 -0.130038,
	6.045861 -1.798217 -0.242980,
	5.918524 -1.812708 -0.326000,
	5.775961 -1.842839 -0.369556,
	5.047611 -1.702121 -0.127907,
	5.148584 -1.710491 -0.241135,
	5.274070 -1.694924 -0.324788,
	5.683670 -2.338647 -0.126925,
	5.679369 -2.242691 -0.239983,
	5.699183 -2.122195 -0.323928,
	5.734796 -1.985492 -0.368861,
	6.256754 -1.915434 -0.130113,
	6.153055 -1.905561 -0.243101,
	6.025477 -1.919951 -0.326116,
	5.882682 -1.949960 -0.369606,
	5.789678 -2.444685 -0.126862,
	5.785559 -2.348999 -0.239887,
	5.805547 -2.228777 -0.323841,
	5.841336 -2.092345 -0.368822,
	6.364169 -2.022885 -0.130178,
	6.260242 -2.012869 -0.243200,
	6.132433 -2.027130 -0.326205,
	5.989419 -2.056994 -0.369643,
	5.399628 -1.054253 -0.121891,
	5.295098 -0.947161 -0.116522,
	5.895681 -2.550716 -0.126804,
	5.891741 -2.455287 -0.239800,
	5.911905 -2.335326 -0.323765,
	5.947877 -2.199142 -0.368790,
	6.471580 -2.130328 -0.130235,
	6.367422 -2.120155 -0.243287,
	6.239384 -2.134269 -0.326280,
	6.096158 -2.163975 -0.369674,
	4.941824 -1.595604 -0.129283,
	5.042758 -1.603437 -0.242135,
	5.168348 -1.587257 -0.325564,
	5.309778 -1.555886 -0.369433,
	6.001680 -2.656740 -0.126751,
	5.997918 -2.561560 -0.239722,
	6.018256 -2.441848 -0.323697,
	6.054415 -2.305901 -0.368763,
	6.578988 -2.237765 -0.130288,
	6.474597 -2.227426 -0.243365,
	6.346331 -2.241384 -0.326347,
	6.202892 -2.270921 -0.369700,
	6.107676 -2.762761 -0.126700,
	6.104089 -2.667823 -0.239647,
	6.124602 -2.548354 -0.323633,
	6.160949 -2.412634 -0.368738,
	6.686394 -2.345199 -0.130338,
	6.581769 -2.334688 -0.243438,
	6.453274 -2.348482 -0.326408,
	6.309624 -2.377844 -0.369724,
	5.351633 -1.410607 -0.368571,
	5.388284 -1.271084 -0.321372,
	5.407271 -1.149816 -0.234729,
	6.213669 -2.868780 -0.126644,
	6.210253 -2.774084 -0.239568,
	6.230940 -2.654850 -0.323570,
	6.267477 -2.519351 -0.368714,
	6.793800 -2.452630 -0.130386,
	6.688940 -2.441942 -0.243509,
	6.560215 -2.455570 -0.326467,
	6.416350 -2.484754 -0.369747,
	6.319655 -2.974804 -0.126565,
	6.316396 -2.880357 -0.239474,
	6.337264 -2.761351 -0.323500,
	6.373997 -2.626061 -0.368691,
	6.901221 -2.560114 -0.130502,
	6.796107 -2.549252 -0.243655,
	6.667132 -2.562699 -0.326556,
	6.523059 -2.591679 -0.369774,
	6.425618 -3.080842 -0.126410,
	6.422468 -2.986693 -0.239289,
	6.443514 -2.867917 -0.323382,
	6.480467 -2.732820 -0.368656,
	7.008713 -2.667808 -0.130864,
	6.903264 -2.656841 -0.244038,
	6.773972 -2.670061 -0.326773,
	6.629681 -2.698746 -0.369831,
	6.531627 -3.186910 -0.126287,
	6.528561 -3.093095 -0.239068,
	6.549659 -2.974682 -0.323136,
	6.586815 -2.839789 -0.368580,
	7.116583 -2.776111 -0.131644,
	7.010668 -2.765212 -0.244857,
	6.880854 -2.778075 -0.327233,
	6.736230 -2.806233 -0.369950,
	6.637663 -3.293096 -0.125975,
	6.634494 -3.199925 -0.238319,
	6.655700 -3.081938 -0.322646,
	6.693082 -2.947296 -0.368428,
	7.225289 -2.885810 -0.133432,
	7.118600 -2.875362 -0.246695,
	6.987753 -2.887687 -0.328324,
	6.842617 -2.914864 -0.370231,
	6.743272 -3.399144 -0.125053,
	6.739748 -3.307327 -0.236479,
	6.760736 -3.190723 -0.321058,
	6.798722 -3.056326 -0.368002,
	7.077145 -3.713271 -0.159136,
	7.569159 -3.237637 -0.147529,
	4.836125 -1.489348 -0.130283,
	4.937420 -1.496387 -0.243529,
	5.063395 -1.479368 -0.326734,
	5.205092 -1.447196 -0.369932,
	7.449701 -3.116551 -0.144819,
	7.335557 -2.998424 -0.137655,
	7.227130 -2.989384 -0.251160,
	7.093949 -3.000876 -0.331061,
	6.947808 -3.026360 -0.370953,
	5.248103 -1.301440 -0.367868,
	5.285133 -1.162701 -0.319053,
	5.303740 -1.042507 -0.231243,
	6.847680 -3.503879 -0.124369,
	6.843344 -3.413993 -0.233756,
	6.864580 -3.300381 -0.318491,
	6.902803 -3.167993 -0.366916,
	6.951881 -3.605829 -0.128983,
	7.336978 -3.112295 -0.261009,
	7.199099 -3.119523 -0.335900,
	7.051885 -3.141279 -0.371920,
	4.730752 -1.383506 -0.131127,
	4.832598 -1.389993 -0.244811,
	4.959242 -1.372116 -0.327970,
	5.101492 -1.339035 -0.370501,
	7.004871 -3.282060 -0.364979,
	6.964676 -3.410404 -0.314057,
	6.942143 -3.516518 -0.230370,
	5.145841 -1.193452 -0.367031,
	5.182972 -1.056293 -0.317171,
	5.202835 -0.936263 -0.226315,
	7.455251 -3.260956 -0.281535,
	7.299520 -3.246438 -0.344589,
	7.152297 -3.261504 -0.373456,
	4.625651 -1.278124 -0.131631,
	4.728150 -1.284547 -0.245623,
	4.855490 -1.266234 -0.328818,
	4.998857 -1.232005 -0.370979,
	7.196380 -3.520489 -0.355566,
	7.101902 -3.399191 -0.361350,
	7.249282 -3.386348 -0.374666,
	5.043515 -1.088137 -0.366550,
	5.081802 -0.952524 -0.316019,
	5.104693 -0.835394 -0.223797,
	7.057043 -3.518825 -0.306356,
	4.520639 -1.173032 -0.131775,
	4.623815 -1.179868 -0.245903,
	4.751747 -1.161699 -0.329134,
	4.895812 -1.127254 -0.371130,
	7.137140 -3.632688 -0.288046,
	4.941087 -0.984950 -0.366427,
	4.980245 -0.851429 -0.316224,
	5.003576 -0.738091 -0.227318,
	5.000180 -0.652860 -0.117825,
	7.027245 -3.603250 -0.228889,
	4.415591 -1.067939 -0.131855,
	4.519439 -1.075396 -0.245982,
	4.647924 -1.057784 -0.329171,
	4.792551 -1.023779 -0.371149,
	4.838149 -0.882835 -0.366560,
	4.877088 -0.750933 -0.317403,
	4.898838 -0.638091 -0.231691,
	4.895692 -0.550524 -0.122336,
	7.374691 -3.367641 -0.356766,
	4.310654 -0.962884 -0.132068,
	4.415137 -0.970988 -0.246068,
	4.544046 -0.954030 -0.329121,
	4.689052 -0.920701 -0.371112,
	4.734583 -0.780834 -0.366812,
	4.772860 -0.649882 -0.318811,
	4.793990 -0.536613 -0.234801,
	4.790932 -0.447194 -0.125337,
	4.206177 -0.858127 -0.132572,
	4.311312 -0.867065 -0.246147,
	4.440237 -0.851075 -0.328781,
	4.585168 -0.818355 -0.370975,
	4.629887 -0.680179 -0.367463,
	4.666431 -0.549734 -0.321594,
	4.685720 -0.434721 -0.240246,
	4.683297 -0.342036 -0.130217,
	4.102752 -0.753724 -0.134327,
	4.208711 -0.763426 -0.246992,
	4.337218 -0.749443 -0.328228,
	4.480281 -0.718397 -0.370430,
	4.107398 -0.656802 -0.251319,
	4.237106 -0.648450 -0.328580,
	4.376240 -0.620058 -0.369719,
	4.522256 -0.582247 -0.368697,
	4.003466 -0.651897 -0.138894,
	4.554682 -0.450315 -0.326577,
	4.572234 -0.330332 -0.247656,
	4.569307 -0.231255 -0.135984,
	4.452998 -0.224224 -0.257892,
	4.412460 -0.486157 -0.370406,
	4.434542 -0.349806 -0.334025,
	4.299495 -0.397876 -0.372711,
	4.276424 -0.526549 -0.368932,
	4.196648 -0.451734 -0.368314,
	4.145622 -0.546222 -0.332650,
	4.520198 -1.174123 0.129023,
	4.621886 -1.183185 0.241630,
	4.747847 -1.167593 0.325230,
	4.889837 -1.135498 0.369489,
	5.037461 -1.096917 0.368630,
	5.178989 -1.063076 0.321942,
	5.302101 -1.046567 0.236502,
	5.399681 -1.055961 0.125371,
	5.295033 -0.948418 0.119300,
	5.201407 -0.939347 0.230478,
	5.103390 -0.837650 0.227082,
	5.078260 -0.958163 0.320087,
	4.625479 -1.279572 0.128721,
	4.999919 -0.653425 0.119556,
	5.002273 -0.740131 0.230403,
	4.976956 -0.856134 0.319766,
	4.935513 -0.992661 0.368343,
	4.730667 -1.385269 0.127712,
	4.726733 -1.288408 0.241324,
	4.415187 -1.068730 0.129708,
	4.517727 -1.078033 0.242439,
	4.644352 -1.062817 0.325741,
	4.787035 -1.031129 0.369684,
	4.895471 -0.551010 0.123820,
	4.897658 -0.639856 0.234408,
	4.874194 -0.754829 0.320412,
	4.833114 -0.889403 0.368236,
	4.836232 -1.490980 0.127406,
	4.831694 -1.393915 0.240879,
	4.852339 -1.272644 0.325007,
	4.309807 -0.962711 0.130858,
	4.413282 -0.971950 0.243773,
	4.540842 -0.957227 0.326570,
	4.684128 -0.926546 0.369893,
	4.791632 -0.447374 0.124246,
	4.794054 -0.536945 0.235048,
	4.771147 -0.651769 0.320406,
	4.730487 -0.785378 0.368061,
	4.941994 -1.596809 0.127265,
	4.937117 -1.499684 0.240597,
	4.957087 -1.378188 0.324689,
	4.993890 -1.240604 0.369357,
	4.203459 -0.855063 0.133192,
	4.307711 -0.862865 0.246635,
	4.436998 -0.848608 0.328473,
	4.581396 -0.819877 0.370384,
	4.686669 -0.342529 0.124493,
	4.690820 -0.432591 0.234014,
	4.669100 -0.546298 0.318889,
	4.629025 -0.678082 0.367264,
	5.140828 -1.202562 0.368914,
	5.281621 -1.170244 0.323783,
	5.405817 -1.154507 0.239992,
	5.506027 -1.163341 0.127539,
	4.097106 -0.746646 0.136902,
	4.199822 -0.748747 0.251709,
	4.331852 -0.733624 0.332233,
	4.479422 -0.708346 0.371353,
	4.090360 -0.629288 0.259217,
	4.528087 -0.567941 0.365781,
	4.376152 -0.591180 0.372586,
	4.220460 -0.606959 0.337669,
	5.047869 -1.702726 0.127177,
	5.042867 -1.605667 0.240408,
	5.062424 -1.484160 0.324436,
	5.098480 -1.346477 0.369197,
	4.575001 -0.233112 0.129088,
	4.586129 -0.328356 0.234435,
	4.568007 -0.439823 0.316504,
	5.245197 -1.309130 0.369189,
	5.386206 -1.277534 0.324861,
	5.511436 -1.262012 0.241528,
	5.612781 -1.270912 0.129126,
	3.999247 -0.646570 0.140884,
	5.153803 -1.808692 0.127108,
	5.148813 -1.711781 0.240270,
	5.168178 -1.590391 0.324246,
	5.203738 -1.452818 0.369062,
	5.350542 -1.415964 0.369374,
	5.491955 -1.384741 0.325442,
	5.617865 -1.369392 0.242303,
	5.719940 -1.378352 0.129631,
	4.272354 -0.464681 0.374010,
	4.428908 -0.455980 0.363722,
	4.342067 -0.346968 0.359388,
	4.470749 -0.338263 0.314597,
	5.259766 -1.914683 0.127050,
	5.254866 -1.817964 0.240164,
	5.274199 -1.696753 0.324110,
	5.309525 -1.559367 0.368967,
	4.393545 -0.257281 0.312907,
	5.456528 -1.522855 0.369487,
	5.598312 -1.491881 0.325754,
	5.724711 -1.476677 0.242660,
	5.827247 -1.485771 0.129832,
	5.365743 -2.020685 0.126998,
	5.360975 -1.924179 0.240078,
	5.380373 -1.803175 0.324012,
	5.415653 -1.666000 0.368904,
	4.477605 -0.227794 0.241214,
	5.562878 -1.629748 0.369555,
	5.704979 -1.598976 0.325925,
	5.831742 -1.583929 0.242841,
	5.934611 -1.593191 0.129931,
	5.471728 -2.126693 0.126949,
	5.467112 -2.030409 0.240002,
	5.486630 -1.909623 0.323935,
	5.521974 -1.772662 0.368862,
	5.669419 -1.736636 0.369598,
	5.811794 -1.706051 0.326029,
	5.938852 -1.691172 0.242949,
	6.041999 -1.700614 0.129994,
	5.577717 -2.232704 0.126902,
	5.573264 -2.136646 0.239933,
	5.592928 -2.016083 0.323871,
	5.628398 -1.879335 0.368831,
	5.776055 -1.843519 0.369629,
	5.918677 -1.813119 0.326102,
	6.045998 -1.798414 0.243028,
	6.149398 -1.808039 0.130042,
	5.683708 -2.338717 0.126857,
	5.679424 -2.242887 0.239867,
	5.699248 -2.122548 0.323813,
	5.734874 -1.986012 0.368805,
	5.882738 -1.950400 0.369654,
	6.025593 -1.920185 0.326162,
	6.153159 -1.905657 0.243094,
	6.256802 -1.915466 0.130084,
	5.789701 -2.444730 0.126812,
	5.785588 -2.349129 0.239803,
	5.805578 -2.229015 0.323758,
	5.841375 -2.092692 0.368783,
	5.989442 -2.057282 0.369676,
	6.132523 -2.027251 0.326217,
	6.260328 -2.012901 0.243155,
	6.364208 -2.022894 0.130123,
	5.895693 -2.550744 0.126769,
	5.891753 -2.455372 0.239740,
	5.911914 -2.335483 0.323705,
	5.947890 -2.199372 0.368762,
	6.096158 -2.164164 0.369696,
	6.239460 -2.134318 0.326268,
	6.367500 -2.120145 0.243214,
	6.471614 -2.130323 0.130162,
	6.001687 -2.656758 0.126725,
	5.997920 -2.561615 0.239678,
	6.018252 -2.441952 0.323653,
	6.054411 -2.306053 0.368742,
	6.202878 -2.271045 0.369716,
	6.346400 -2.241384 0.326318,
	6.474673 -2.227389 0.243272,
	6.579022 -2.237751 0.130200,
	6.107680 -2.762771 0.126681,
	6.104087 -2.667859 0.239615,
	6.124592 -2.548422 0.323601,
	6.160934 -2.412734 0.368723,
	6.309601 -2.377927 0.369736,
	6.453341 -2.348451 0.326368,
	6.581847 -2.334633 0.243329,
	6.686429 -2.345179 0.130237,
	6.213671 -2.868786 0.126632,
	6.210250 -2.774106 0.239546,
	6.230928 -2.654895 0.323546,
	6.267458 -2.519417 0.368703,
	6.416323 -2.484811 0.369756,
	6.560282 -2.455517 0.326418,
	6.689020 -2.441874 0.243386,
	6.793837 -2.452605 0.130273,
	6.319656 -2.974807 0.126559,
	6.316393 -2.880370 0.239459,
	6.337252 -2.761379 0.323483,
	6.373975 -2.626106 0.368681,
	6.523038 -2.591700 0.369778,
	6.667212 -2.562595 0.326482,
	6.796188 -2.549138 0.243495,
	6.901250 -2.560077 0.130381,
	6.425621 -3.080841 0.126417,
	6.422468 -2.986697 0.239285,
	6.443509 -2.867926 0.323375,
	6.480456 -2.732830 0.368652,
	6.629678 -2.698674 0.369822,
	6.774036 -2.669852 0.326664,
	6.903313 -2.656683 0.243868,
	7.008751 -2.667796 0.130775,
	6.531630 -3.186907 0.126297,
	6.528456 -3.093197 0.238895,
	6.549634 -2.974678 0.323126,
	6.586804 -2.839733 0.368584,
	6.736141 -2.806023 0.369934,
	6.880805 -2.777756 0.327126,
	7.010691 -2.765031 0.244689,
	7.116691 -2.776151 0.131522,
	6.637659 -3.293098 0.125958,
	6.634454 -3.199937 0.238274,
	6.655626 -3.081903 0.322629,
	6.692987 -2.947154 0.368431,
	6.842532 -2.914381 0.370182,
	6.987809 -2.887223 0.328116,
	7.118742 -2.875205 0.246449,
	7.225454 -2.885888 0.133275,
	6.743263 -3.399145 0.125028,
	6.739711 -3.307307 0.236462,
	6.760657 -3.190624 0.321064,
	6.798707 -3.055979 0.368042,
	7.077149 -3.713260 0.159145,
	7.569187 -3.237670 0.147535,
	7.335684 -2.998416 0.137416,
	7.449755 -3.116671 0.144945,
	6.947950 -3.025629 0.370874,
	7.094443 -3.000186 0.330619,
	7.227316 -2.989451 0.251064,
	6.847675 -3.503871 0.124371,
	6.843315 -3.413962 0.233759,
	6.864541 -3.300255 0.318526,
	6.902849 -3.167607 0.366982,
	6.951879 -3.605819 0.128992,
	7.052256 -3.140497 0.371818,
	7.199356 -3.119301 0.335730,
	7.337021 -3.112537 0.261156,
	7.004953 -3.281768 0.365037,
	6.964675 -3.410301 0.314101,
	6.942134 -3.516484 0.230387,
	7.455285 -3.261004 0.281542,
	7.299608 -3.246389 0.344548,
	7.152447 -3.261238 0.373433,
	7.196397 -3.520436 0.355578,
	7.101952 -3.399047 0.361384,
	7.057051 -3.518764 0.306389,
	7.249343 -3.386256 0.374663,
	7.137086 -3.632722 0.287990,
	7.027236 -3.603233 0.228890,
	7.374730 -3.367620 0.356754,
	3.565930 0.335587 -0.135626,
	3.486459 0.275041 -0.248768,
	3.444148 0.195788 -0.318174,
	4.277745 0.040731 -0.135777,
	4.291024 -0.058272 -0.248922,
	4.265012 -0.144304 -0.318248,
	3.723261 0.306330 -0.134178,
	3.630910 0.255928 -0.247772,
	3.546180 0.174977 -0.324577,
	3.460902 0.089223 -0.363213,
	4.145541 0.131359 -0.134484,
	4.175098 0.030380 -0.248042,
	4.178241 -0.087011 -0.324669,
	4.178521 -0.208251 -0.363209,
	3.869772 0.262200 -0.134587,
	4.010491 0.203787 -0.134970,
	3.773762 0.219427 -0.249938,
	3.913386 0.168844 -0.251144,
	4.048056 0.105432 -0.250425,
	4.073959 -0.298803 -0.372379,
	4.069292 -0.158169 -0.369090,
	4.064229 -0.020906 -0.330280,
	3.473993 -0.049577 -0.372317,
	3.575481 0.046859 -0.369122,
	3.674171 0.140835 -0.330247,
	3.938385 0.040807 -0.333345,
	3.806998 0.095000 -0.333477,
	3.489508 -0.187481 -0.329380,
	3.596083 -0.096262 -0.368158,
	3.700430 0.001080 -0.371647,
	3.951080 -0.102968 -0.371601,
	3.827233 -0.049041 -0.372291,
	3.974411 -0.390794 -0.330244,
	3.960883 -0.248837 -0.368271,
	3.843027 -0.196339 -0.365497,
	3.721023 -0.145298 -0.365374,
	3.893858 -0.464598 -0.243185,
	3.863221 -0.336238 -0.319415,
	3.745940 -0.282489 -0.315496,
	3.621654 -0.233196 -0.318529,
	3.587315 -0.385810 -0.123798,
	3.661138 -0.348043 -0.231280,
	3.782854 -0.402891 -0.232205,
	3.718833 -0.437589 -0.121350,
	3.451839 -0.355424 -0.133212,
	3.527514 -0.303520 -0.240335,
	3.837586 -0.507316 -0.126134,
	3.444641 0.196420 0.317756,
	3.486753 0.275004 0.248786,
	3.565924 0.335355 0.136212,
	4.277906 0.040641 0.135709,
	4.291261 -0.058418 0.248871,
	4.265099 -0.144454 0.318283,
	3.460573 0.090084 0.362979,
	3.546376 0.175386 0.324333,
	3.631275 0.255628 0.248032,
	3.723480 0.305997 0.134865,
	4.145952 0.131139 0.134423,
	4.175634 0.030085 0.247977,
	4.178253 -0.087225 0.324761,
	4.177770 -0.208198 0.363336,
	3.870339 0.261916 0.134783,
	4.011099 0.203490 0.134991,
	3.774395 0.219158 0.250032,
	3.914329 0.168408 0.251192,
	4.048687 0.105038 0.250472,
	4.063891 -0.020820 0.330337,
	4.066699 -0.157548 0.369269,
	4.070013 -0.297287 0.372214,
	3.470258 -0.048397 0.372417,
	3.573044 0.047874 0.369013,
	3.673601 0.141210 0.330119,
	3.806209 0.095662 0.333297,
	3.937414 0.040761 0.333575,
	3.946455 -0.101166 0.371682,
	3.950793 -0.244019 0.368019,
	3.961605 -0.383487 0.329098,
	3.695588 0.003040 0.371581,
	3.821258 -0.046681 0.372305,
	3.475513 -0.184045 0.330289,
	3.585504 -0.093169 0.368299,
	3.705888 -0.139589 0.365484,
	3.828113 -0.189978 0.365307,
	3.480230 -0.293263 0.243190,
	3.592657 -0.224173 0.319410,
	3.713482 -0.269200 0.315406,
	3.836083 -0.322327 0.318337,
	3.727104 -0.375466 0.231156,
	3.752481 -0.454240 0.123682,
	3.869916 -0.528603 0.133153,
	3.602300 -0.328149 0.232155,
	3.853001 -0.438458 0.240181,
	3.623022 -0.397927 0.121298,
	3.489792 -0.363265 0.126118,
	1.443484 -0.352549 0.127762,
	1.511392 -0.286981 0.241179,
	1.579317 -0.187158 0.324857,
	1.647268 -0.064988 0.369209,
	1.715231 0.065050 0.369198,
	1.783179 0.187180 0.324845,
	1.851093 0.286959 0.241205,
	1.918987 0.352530 0.127818,
	1.766262 0.352122 0.128931,
	1.613558 0.351945 0.129382,
	1.698460 0.286427 0.241817,
	1.596216 -0.352129 0.128915,
	1.460841 0.351828 0.129678,
	1.545847 0.286027 0.242279,
	1.630607 0.186456 0.325253,
	1.308097 0.351739 0.129905,
	1.393200 0.285708 0.242646,
	1.478034 0.185858 0.325590,
	1.562690 0.064228 0.369343,
	1.748919 -0.351947 0.129377,
	1.664021 -0.286430 0.241815,
	1.290739 -0.352690 0.127342,
	1.358759 -0.287450 0.240640,
	1.426769 -0.187811 0.324489,
	1.494747 -0.065760 0.369073,
	1.155326 0.351670 0.130080,
	1.240507 0.285458 0.242934,
	1.325411 0.185377 0.325861,
	1.410118 0.063565 0.369460,
	1.137955 -0.352765 0.127120,
	1.206051 -0.287754 0.240290,
	1.274136 -0.188330 0.324197,
	1.342157 -0.066388 0.368962,
	1.002533 0.351618 0.130214,
	1.087769 0.285266 0.243155,
	1.172730 0.185004 0.326072,
	1.257484 0.063041 0.369552,
	1.901636 -0.351829 0.129677,
	1.816631 -0.286025 0.242281,
	1.731878 -0.186436 0.325264,
	0.985148 -0.352812 0.126981,
	1.053292 -0.287954 0.240058,
	1.121431 -0.188706 0.323985,
	1.189496 -0.066873 0.368876,
	0.849724 0.351578 0.130313,
	0.934998 0.285122 0.243322,
	1.019999 0.184721 0.326231,
	1.104789 0.062641 0.369623,
	0.832326 -0.352843 0.126888,
	0.900500 -0.288091 0.239901,
	0.968677 -0.188972 0.323834,
	1.036776 -0.067234 0.368813,
	0.696857 0.351491 0.130536,
	0.782137 0.284905 0.243571,
	0.867187 0.184418 0.326402,
	0.952031 0.062303 0.369682,
	2.054379 -0.351739 0.129904,
	1.969277 -0.285705 0.242650,
	1.884447 -0.185839 0.325601,
	1.799800 -0.064182 0.369351,
	0.679579 -0.352958 0.126546,
	0.747797 -0.288419 0.239524,
	0.815945 -0.189387 0.323600,
	0.884013 -0.067634 0.368742,
	0.544182 0.351221 0.131221,
	0.629486 0.284324 0.244240,
	0.714502 0.183753 0.326777,
	0.799299 0.061723 0.369784,
	1.867750 0.065836 0.369059,
	1.935741 0.187819 0.324485,
	2.003739 0.287402 0.240695,
	2.071737 0.352660 0.127432,
	0.526760 -0.353246 0.125689,
	0.595404 -0.289503 0.238274,
	0.663592 -0.190768 0.322822,
	0.731488 -0.068698 0.368555,
	0.391774 0.350583 0.132844,
	0.477038 0.282772 0.246028,
	0.562082 0.181753 0.327904,
	0.646923 0.059915 0.370103,
	2.207150 -0.351670 0.130080,
	2.121971 -0.285453 0.242939,
	2.037071 -0.185356 0.325873,
	1.952373 -0.063515 0.369468,
	0.372381 -0.353288 0.125566,
	0.443043 -0.291431 0.235936,
	0.511866 -0.194340 0.320645,
	0.579484 -0.071876 0.367994,
	0.239818 0.349364 0.135941,
	0.324070 0.279346 0.249975,
	0.409364 0.176843 0.330673,
	0.494705 0.054336 0.371006,
	0.209420 -0.351812 0.129720,
	0.289557 -0.291530 0.235808,
	0.360987 -0.198532 0.318018,
	0.427826 -0.078782 0.366543,
	0.169268 0.273087 0.256866,
	0.093654 0.347667 0.140253,
	0.255309 0.167248 0.335524,
	0.341667 0.045282 0.372142,
	0.101608 0.153743 0.341921,
	2.020345 0.066475 0.368946,
	2.088388 0.188318 0.324203,
	2.156455 0.287681 0.240373,
	2.224523 0.352726 0.127236,
	0.184332 0.029725 0.373707,
	0.276672 -0.088329 0.364368,
	2.359944 -0.351617 0.130214,
	2.274710 -0.285261 0.243161,
	2.189754 -0.184980 0.326085,
	2.105010 -0.062986 0.369562,
	0.128806 -0.105205 0.359847,
	2.173012 0.066967 0.368860,
	2.241100 0.188677 0.324001,
	2.309218 0.287863 0.240164,
	2.377330 0.352766 0.127117,
	0.214606 -0.202383 0.315605,
	2.512753 -0.351578 0.130315,
	2.427482 -0.285116 0.243328,
	2.342487 -0.184695 0.326246,
	2.257708 -0.062581 0.369633,
	2.325736 0.067331 0.368796,
	2.393858 0.188930 0.323858,
	2.462010 0.287986 0.240022,
	2.530150 0.352793 0.127037,
	0.095747 -0.205526 0.313635,
	2.665620 -0.351490 0.130537,
	2.580343 -0.284899 0.243578,
	2.495301 -0.184391 0.326417,
	2.410469 -0.062241 0.369693,
	0.134889 -0.286354 0.241902,
	2.478522 0.067658 0.368738,
	2.546654 0.189199 0.323707,
	2.614763 0.288190 0.239787,
	2.682859 0.352896 0.126731,
	2.818295 -0.351221 0.131221,
	2.732999 -0.284322 0.244242,
	2.648003 -0.183756 0.326775,
	2.563232 -0.061739 0.369782,
	2.631199 0.068364 0.368614,
	2.699032 0.190308 0.323081,
	2.766889 0.289374 0.238423,
	2.835451 0.353283 0.125580,
	2.970704 -0.350583 0.132843,
	2.885457 -0.282782 0.246016,
	2.800470 -0.181834 0.327858,
	2.715722 -0.060173 0.370058,
	2.783115 0.071407 0.368077,
	2.850329 0.194380 0.320620,
	2.918982 0.291653 0.235647,
	2.989917 0.353333 0.125432,
	3.122661 -0.349364 0.135939,
	3.038432 -0.279364 0.249953,
	2.953192 -0.176951 0.330611,
	2.867845 -0.054567 0.370977,
	2.934403 0.078787 0.366542,
	3.001096 0.198878 0.317801,
	3.072705 0.291666 0.235630,
	3.153086 0.351797 0.129759,
	3.193227 -0.273103 0.256850,
	3.107207 -0.167319 0.335489,
	3.020776 -0.045366 0.372131,
	3.268826 -0.347668 0.140249,
	3.260883 -0.153772 0.341908,
	3.178098 -0.029750 0.373705,
	3.085610 0.088415 0.364348,
	3.233550 0.105265 0.359830,
	3.147662 0.202519 0.315519,
	3.266630 0.205583 0.313599,
	3.227506 0.286398 0.241852,
	1.918992 0.352549 -0.127762,
	1.851081 0.286982 -0.241178,
	1.783146 0.187162 -0.324855,
	1.715181 0.065003 -0.369206,
	1.647216 -0.065027 -0.369202,
	1.579285 -0.187174 -0.324848,
	1.511385 -0.286975 -0.241187,
	1.443491 -0.352541 -0.127785,
	1.766260 0.352129 -0.128914,
	1.613557 0.351947 -0.129377,
	1.698451 0.286431 -0.241813,
	1.460841 0.351829 -0.129677,
	1.545844 0.286027 -0.242278,
	1.630589 0.186445 -0.325259,
	1.308098 0.351740 -0.129904,
	1.393200 0.285708 -0.242646,
	1.478027 0.185854 -0.325593,
	1.562666 0.064210 -0.369346,
	1.290740 -0.352688 -0.127349,
	1.358758 -0.287444 -0.240647,
	1.426759 -0.187811 -0.324489,
	1.494726 -0.065773 -0.369070,
	1.155326 0.351671 -0.130080,
	1.240507 0.285458 -0.242934,
	1.325409 0.185376 -0.325862,
	1.410108 0.063559 -0.369461,
	1.137955 -0.352764 -0.127122,
	1.206051 -0.287751 -0.240293,
	1.274133 -0.188327 -0.324198,
	1.342150 -0.066390 -0.368961,
	1.596216 -0.352127 -0.128919,
	1.663998 -0.286437 -0.241807,
	1.748939 -0.351949 -0.129372,
	1.002533 0.351618 -0.130213,
	1.087769 0.285266 -0.243155,
	1.172730 0.185004 -0.326072,
	1.257480 0.063040 -0.369552,
	0.985147 -0.352811 -0.126982,
	1.053292 -0.287953 -0.240060,
	1.121430 -0.188704 -0.323986,
	1.189493 -0.066873 -0.368876,
	0.849724 0.351579 -0.130313,
	0.934998 0.285122 -0.243321,
	1.019999 0.184721 -0.326231,
	1.104788 0.062641 -0.369623,
	0.832326 -0.352843 -0.126888,
	0.900500 -0.288090 -0.239902,
	0.968676 -0.188971 -0.323835,
	1.036775 -0.067233 -0.368813,
	1.731819 -0.186454 -0.325254,
	1.816627 -0.286045 -0.242258,
	1.901677 -0.351841 -0.129647,
	0.696857 0.351491 -0.130536,
	0.782137 0.284905 -0.243571,
	0.867187 0.184418 -0.326402,
	0.952030 0.062304 -0.369682,
	0.679579 -0.352958 -0.126546,
	0.747797 -0.288419 -0.239524,
	0.815945 -0.189387 -0.323601,
	0.884013 -0.067634 -0.368742,
	1.799717 -0.064199 -0.369348,
	1.884393 -0.185872 -0.325582,
	1.969293 -0.285750 -0.242598,
	2.054436 -0.351763 -0.129845,
	0.544182 0.351222 -0.131219,
	0.629468 0.284326 -0.244238,
	0.714473 0.183755 -0.326776,
	0.799283 0.061723 -0.369784,
	0.526774 -0.353242 -0.125701,
	0.595428 -0.289482 -0.238299,
	0.663597 -0.190734 -0.322841,
	0.731465 -0.068678 -0.368558,
	2.071737 0.352690 -0.127342,
	2.003712 0.287451 -0.240638,
	1.935687 0.187817 -0.324486,
	1.867686 0.065777 -0.369070,
	0.391776 0.350577 -0.132859,
	0.477035 0.282747 -0.246057,
	0.562100 0.181751 -0.327905,
	0.646928 0.059951 -0.370097,
	0.372421 -0.353277 -0.125597,
	0.443124 -0.291380 -0.236004,
	0.511968 -0.194243 -0.320706,
	0.579580 -0.071783 -0.368011,
	1.952277 -0.063527 -0.369466,
	2.037024 -0.185414 -0.325841,
	2.122001 -0.285524 -0.242858,
	2.207215 -0.351704 -0.129995,
	0.239823 0.349341 -0.135999,
	0.324103 0.279241 -0.250095,
	0.409504 0.176129 -0.331054,
	0.494901 0.054310 -0.371009,
	0.209461 -0.351801 -0.129748,
	0.289663 -0.291477 -0.235876,
	0.361194 -0.198414 -0.318092,
	0.428091 -0.078660 -0.366571,
	2.224521 0.352765 -0.127120,
	2.156419 0.287756 -0.240288,
	2.088318 0.188338 -0.324192,
	2.020269 0.066409 -0.368958,
	0.169304 0.272971 -0.256985,
	0.341973 0.045325 -0.372136,
	0.255336 0.166955 -0.335672,
	2.104909 -0.062998 -0.369560,
	2.189711 -0.185059 -0.326041,
	2.274745 -0.285352 -0.243056,
	2.360012 -0.351659 -0.130108,
	0.101630 0.153688 -0.341945,
	0.276992 -0.088252 -0.364386,
	0.184294 0.029800 -0.373701,
	2.377329 0.352812 -0.126981,
	2.309178 0.287957 -0.240056,
	2.241022 0.188716 -0.323979,
	2.172928 0.066898 -0.368872,
	2.257603 -0.062593 -0.369631,
	2.342445 -0.184791 -0.326192,
	2.427519 -0.285223 -0.243205,
	2.512823 -0.351626 -0.130192,
	0.128897 -0.105154 -0.359861,
	0.214753 -0.202320 -0.315644,
	2.530150 0.352843 -0.126887,
	2.461970 0.288094 -0.239898,
	2.393775 0.188984 -0.323828,
	2.325647 0.067262 -0.368808,
	0.095809 -0.205497 -0.313653,
	0.134948 -0.286330 -0.241930,
	2.410346 -0.062286 -0.369685,
	2.495225 -0.184562 -0.326321,
	2.580359 -0.285066 -0.243386,
	2.665715 -0.351540 -0.130410,
	0.093661 0.347653 -0.140286,
	2.682896 0.352958 -0.126546,
	2.614670 0.288419 -0.239524,
	2.546497 0.189383 -0.323603,
	2.478390 0.067626 -0.368744,
	2.563121 -0.061843 -0.369763,
	2.648066 -0.184010 -0.326632,
	2.733156 -0.284500 -0.244037,
	2.818311 -0.351248 -0.131152,
	2.835701 0.353242 -0.125702,
	2.767036 0.289475 -0.238308,
	2.698851 0.190698 -0.322862,
	2.630980 0.068587 -0.368574,
	2.715627 -0.060292 -0.370037,
	2.800384 -0.182006 -0.327762,
	2.885359 -0.282780 -0.246019,
	2.970699 -0.350533 -0.132969,
	2.990054 0.353276 -0.125600,
	2.919343 0.291369 -0.236018,
	2.850509 0.194188 -0.320741,
	2.782930 0.071598 -0.368043,
	2.867501 -0.054832 -0.370943,
	2.952819 -0.176092 -0.331073,
	3.038328 -0.279046 -0.250320,
	3.122763 -0.349258 -0.136209,
	3.153015 0.351800 -0.129751,
	3.072811 0.291467 -0.235889,
	3.001292 0.198365 -0.318123,
	2.934387 0.078492 -0.366609,
	3.193177 -0.272914 -0.257042,
	3.020462 -0.045460 -0.372119,
	3.107101 -0.166925 -0.335687,
	3.260841 -0.153679 -0.341949,
	3.085481 0.088178 -0.364403,
	3.178169 -0.029832 -0.373698,
	3.233577 0.105131 -0.359868,
	3.147724 0.202294 -0.315661,
	3.266667 0.205487 -0.313659,
	3.227529 0.286323 -0.241938,
	3.268835 -0.347635 -0.140333,
	0.000000 -0.220788 0.123569,
	0.000000 -0.168202 -0.012241,
	0.000000 -0.101310 -0.136176,
	0.000000 -0.054819 -0.252126,
	-0.000000 0.039703 0.220460,
	0.000000 -0.065231 0.102383,
	-0.000000 0.225046 0.038248,
	-0.000000 0.080722 0.074132,
	0.000000 -0.018838 -0.032992,
	-0.000000 0.022384 -0.159441,
	-0.000000 0.115930 -0.064786,
	-0.000000 0.140500 -0.201602,
	0.000000 -0.109142 0.238815,
	-0.000000 0.050313 -0.266921,
	-0.000000 0.244651 -0.106110,
	0.000000 -0.235846 -0.130609,
	-0.000000 0.183400 0.181300,
	0.000000 -0.160102 -0.226078,
	7.287190 -3.627353 0.206668,
	7.289687 -3.623340 0.080541,
	7.286901 -3.627851 -0.049432,
	7.284004 -3.632519 -0.191805,
	7.473329 -3.441970 0.198826,
	7.368247 -3.525637 0.137870,
	7.472887 -3.442244 -0.194836,
	7.366740 -3.527199 -0.125238,
	7.366986 -3.526944 0.008343,
	7.464611 -3.447504 -0.059118,
	7.464978 -3.447260 0.066695,
	7.232809 -3.737908 0.036736,
	7.369209 -3.524648 0.268136,
	7.241155 -3.716357 0.146838,
	7.367952 -3.525936 -0.262889,
	7.583802 -3.388082 0.112902,
	7.583656 -3.388138 -0.110425,
	7.230034 -3.745445 -0.102457,
	7.561937 -3.396535 0.002011,
 ]
}
IndexedFaceSet { 
   coordIndex [ 
188, 1149, 1151, -1
1143, 1148, 1151, -1
1150, 187, 1144, -1
55, 54, 1150, -1
96, 95, 1148, -1
59, 1139, 1149, -1
58, 57, 1147, -1
1133, 1134, 1146, -1
1136, 1140, 1147, -1
1133, 99, 1145, -1
101, 100, 1146, -1
1141, 1143, 1142, -1
97, 1137, 1145, -1
1138, 1137, 1143, -1
1134, 1138, 1141, -1
188, 60, 1149, -1
1151, 1148, 188, -1
95, 188, 1148, -1
1151, 1142, 1143, -1
1149, 1142, 1151, -1
1144, 1135, 1150, -1
187, 1150, 54, -1
1150, 1136, 55, -1
1135, 1136, 1150, -1
1148, 1143, 1137, -1
1148, 1137, 96, -1
1139, 1142, 1149, -1
1149, 60, 59, -1
1147, 1140, 1139, -1
1147, 1139, 58, -1
1134, 1144, 1146, -1
1146, 100, 1133, -1
1147, 56, 1136, -1
57, 56, 1147, -1
99, 98, 1145, -1
1145, 1138, 1133, -1
1146, 1144, 101, -1
1144, 1134, 1135, -1
1142, 1140, 1141, -1
1139, 1140, 1142, -1
1137, 1138, 1145, -1
1145, 98, 97, -1
187, 101, 1144, -1
59, 58, 1139, -1
1143, 1141, 1138, -1
97, 96, 1137, -1
1136, 56, 55, -1
1141, 1135, 1134, -1
1140, 1135, 1141, -1
1138, 1134, 1133, -1
100, 99, 1133, -1
1136, 1135, 1140, -1
193, 1129, 175, -1
192, 1115, 147, -1
192, 1130, 1116, -1
1130, 1132, 1117, -1
151, 1131, 152, -1
179, 1132, 180, -1
1126, 1128, 177, -1
153, 1131, 1121, -1
1129, 1126, 176, -1
1115, 1127, 148, -1
178, 1128, 1118, -1
150, 1127, 1119, -1
1123, 1124, 1125, -1
1122, 1125, 1121, -1
1120, 1123, 1122, -1
1129, 1121, 1125, -1
1129, 193, 1121, -1
1115, 192, 1116, -1
1130, 192, 181, -1
1117, 1132, 1118, -1
1132, 1130, 180, -1
1116, 1130, 1117, -1
1131, 1119, 1122, -1
1131, 151, 1119, -1
1132, 179, 1118, -1
1128, 1124, 1118, -1
1128, 1126, 1124, -1
1121, 1131, 1122, -1
1131, 153, 152, -1
180, 1130, 181, -1
1126, 1129, 1125, -1
175, 1129, 176, -1
148, 1127, 149, -1
1127, 1115, 1120, -1
1118, 179, 178, -1
1128, 178, 177, -1
1126, 1125, 1124, -1
1119, 1127, 1120, -1
1127, 150, 149, -1
1124, 1123, 1117, -1
1118, 1124, 1117, -1
176, 1126, 177, -1
153, 1121, 193, -1
150, 1119, 151, -1
147, 1115, 148, -1
1125, 1122, 1123, -1
1122, 1119, 1120, -1
1120, 1115, 1116, -1
1123, 1120, 1116, -1
1117, 1123, 1116, -1
112, 1109, 1107, -1
109, 174, 1100, -1
191, 115, 1114, -1
1113, 1112, 110, -1
114, 1104, 1114, -1
111, 110, 1112, -1
1111, 1112, 1113, -1
1108, 1110, 1111, -1
1103, 1105, 1108, -1
114, 113, 1107, -1
1098, 1104, 1106, -1
1106, 1107, 1109, -1
1105, 1103, 1096, -1
1100, 173, 1092, -1
1091, 127, 1099, -1
1101, 1092, 1093, -1
1084, 171, 1076, -1
1103, 1094, 1095, -1
1102, 1093, 1094, -1
1092, 172, 1084, -1
1089, 1090, 1097, -1
1088, 1089, 1096, -1
178, 1054, 1052, -1
1081, 1082, 1089, -1
1080, 1081, 1088, -1
1093, 1084, 1085, -1
1090, 1091, 1098, -1
1083, 128, 1091, -1
1095, 1086, 1087, -1
1094, 1085, 1086, -1
1072, 1073, 1081, -1
1071, 1072, 1080, -1
1085, 1076, 1077, -1
1082, 1083, 1090, -1
1074, 129, 1083, -1
1087, 1078, 1079, -1
1086, 1077, 1078, -1
1076, 170, 1065, -1
1073, 1074, 1082, -1
1062, 130, 1074, -1
1077, 1065, 1066, -1
181, 146, 1037, -1
1055, 168, 1041, -1
1079, 1067, 1068, -1
1078, 1066, 1067, -1
1070, 1069, 180, -1
193, 175, 1075, -1
1065, 169, 1055, -1
1060, 1061, 1072, -1
1059, 1060, 1071, -1
1025, 144, 1013, -1
179, 180, 1069, -1
176, 1045, 1075, -1
1049, 1050, 1060, -1
1048, 1049, 1059, -1
1066, 1055, 1056, -1
1061, 1062, 1073, -1
1064, 1069, 1070, -1
1041, 167, 1017, -1
1051, 131, 1062, -1
1068, 1057, 1058, -1
1067, 1056, 1057, -1
1053, 1063, 1064, -1
1009, 156, 1021, -1
1030, 1031, 1049, -1
1029, 1030, 1048, -1
1056, 1041, 1042, -1
1050, 1051, 1061, -1
1040, 1046, 1053, -1
176, 177, 1052, -1
1021, 155, 1033, -1
1010, 1009, 1022, -1
1032, 132, 1051, -1
1058, 1043, 1044, -1
1057, 1042, 1043, -1
1034, 1045, 1047, -1
1047, 1052, 1054, -1
1022, 1021, 1034, -1
1008, 133, 1032, -1
1042, 1017, 1018, -1
1031, 1032, 1050, -1
1037, 145, 1025, -1
1046, 1040, 1036, -1
1012, 1011, 1024, -1
1011, 1010, 1023, -1
1044, 1019, 1020, -1
1043, 1018, 1019, -1
1026, 1013, 1014, -1
1038, 1025, 1026, -1
1024, 1023, 1036, -1
1023, 1022, 1035, -1
986, 158, 997, -1
1006, 1007, 1030, -1
1005, 1006, 1029, -1
1013, 143, 1001, -1
1040, 1027, 1028, -1
1039, 1026, 1027, -1
997, 157, 1009, -1
1017, 166, 945, -1
1007, 1008, 1031, -1
1028, 1015, 1016, -1
1027, 1014, 1015, -1
998, 997, 1010, -1
996, 134, 1008, -1
1018, 945, 946, -1
1001, 142, 990, -1
1014, 1001, 1002, -1
1000, 999, 1012, -1
999, 998, 1011, -1
978, 159, 986, -1
1020, 947, 948, -1
1019, 946, 947, -1
1016, 1003, 1004, -1
1015, 1002, 1003, -1
987, 986, 998, -1
979, 978, 987, -1
994, 995, 1006, -1
949, 994, 1005, -1
990, 141, 982, -1
1002, 990, 991, -1
989, 988, 1000, -1
988, 987, 999, -1
956, 162, 959, -1
995, 996, 1007, -1
1004, 992, 993, -1
1003, 991, 992, -1
967, 160, 978, -1
976, 977, 995, -1
950, 976, 994, -1
982, 140, 971, -1
991, 982, 983, -1
981, 980, 989, -1
980, 979, 988, -1
968, 967, 979, -1
977, 135, 996, -1
993, 984, 985, -1
992, 983, 984, -1
959, 161, 967, -1
953, 164, 954, -1
971, 139, 963, -1
983, 971, 972, -1
970, 969, 981, -1
969, 968, 980, -1
960, 959, 968, -1
957, 956, 960, -1
975, 136, 977, -1
963, 138, 952, -1
985, 973, 974, -1
984, 972, 973, -1
948, 958, 962, -1
958, 957, 961, -1
946, 953, 955, -1
951, 975, 976, -1
964, 952, 951, -1
972, 963, 964, -1
962, 961, 970, -1
961, 960, 969, -1
954, 163, 956, -1
952, 137, 975, -1
974, 965, 966, -1
973, 964, 965, -1
947, 955, 958, -1
955, 954, 957, -1
945, 165, 953, -1
966, 950, 949, -1
965, 951, 950, -1
112, 1110, 1109, -1
1107, 113, 112, -1
109, 190, 174, -1
1100, 1113, 109, -1
1114, 1099, 126, -1
1114, 126, 191, -1
110, 109, 1113, -1
1104, 1099, 1114, -1
1114, 115, 114, -1
1112, 1111, 1110, -1
1112, 1110, 111, -1
112, 111, 1110, -1
1113, 1101, 1111, -1
1100, 1101, 1113, -1
1110, 1108, 1109, -1
1111, 1102, 1108, -1
1101, 1102, 1111, -1
1105, 1109, 1108, -1
1108, 1102, 1103, -1
1107, 1106, 1104, -1
1107, 1104, 114, -1
1106, 1097, 1098, -1
1097, 1106, 1105, -1
1109, 1105, 1106, -1
1104, 1098, 1099, -1
1096, 1097, 1105, -1
1092, 1101, 1100, -1
174, 173, 1100, -1
127, 126, 1099, -1
1099, 1098, 1091, -1
1093, 1102, 1101, -1
1076, 1085, 1084, -1
172, 171, 1084, -1
1095, 1096, 1103, -1
1094, 1103, 1102, -1
1084, 1093, 1092, -1
173, 172, 1092, -1
1097, 1096, 1089, -1
1096, 1095, 1088, -1
178, 1063, 1054, -1
1052, 177, 178, -1
1089, 1088, 1081, -1
1088, 1087, 1080, -1
1085, 1094, 1093, -1
1098, 1097, 1090, -1
178, 179, 1063, -1
128, 127, 1091, -1
1091, 1090, 1083, -1
1087, 1088, 1095, -1
1086, 1095, 1094, -1
1081, 1080, 1072, -1
1080, 1079, 1071, -1
1077, 1086, 1085, -1
1090, 1089, 1082, -1
129, 128, 1083, -1
1083, 1082, 1074, -1
1079, 1080, 1087, -1
1078, 1087, 1086, -1
1065, 1077, 1076, -1
171, 170, 1076, -1
1082, 1081, 1073, -1
130, 129, 1074, -1
1074, 1073, 1062, -1
1066, 1078, 1077, -1
181, 192, 146, -1
1037, 1070, 181, -1
1041, 1056, 1055, -1
169, 168, 1055, -1
1068, 1071, 1079, -1
1067, 1079, 1078, -1
180, 181, 1070, -1
1075, 154, 193, -1
154, 1075, 1033, -1
1055, 1066, 1065, -1
170, 169, 1065, -1
1072, 1071, 1060, -1
1071, 1068, 1059, -1
1013, 1026, 1025, -1
145, 144, 1025, -1
1069, 1064, 1063, -1
1069, 1063, 179, -1
1045, 1033, 1075, -1
1075, 175, 176, -1
1060, 1059, 1049, -1
1059, 1058, 1048, -1
1056, 1067, 1066, -1
1073, 1072, 1061, -1
1070, 1038, 1064, -1
1037, 1038, 1070, -1
1063, 1053, 1054, -1
1017, 1042, 1041, -1
168, 167, 1041, -1
131, 130, 1062, -1
1062, 1061, 1051, -1
1058, 1059, 1068, -1
1057, 1068, 1067, -1
1064, 1039, 1053, -1
1038, 1039, 1064, -1
156, 155, 1021, -1
1021, 1022, 1009, -1
1049, 1048, 1030, -1
1048, 1044, 1029, -1
1042, 1057, 1056, -1
1061, 1060, 1050, -1
1046, 1054, 1053, -1
1053, 1039, 1040, -1
1052, 1047, 1045, -1
1052, 1045, 176, -1
155, 154, 1033, -1
1033, 1034, 1021, -1
1022, 1023, 1010, -1
132, 131, 1051, -1
1051, 1050, 1032, -1
1044, 1048, 1058, -1
1043, 1058, 1057, -1
1047, 1035, 1034, -1
1035, 1047, 1046, -1
1054, 1046, 1047, -1
1045, 1034, 1033, -1
1034, 1035, 1022, -1
133, 132, 1032, -1
1032, 1031, 1008, -1
1018, 1043, 1042, -1
1050, 1049, 1031, -1
1025, 1038, 1037, -1
146, 145, 1037, -1
1036, 1035, 1046, -1
1024, 1016, 1012, -1
1023, 1024, 1011, -1
1020, 1029, 1044, -1
1019, 1044, 1043, -1
1014, 1027, 1026, -1
1026, 1039, 1038, -1
1036, 1028, 1024, -1
1035, 1036, 1023, -1
158, 157, 997, -1
997, 998, 986, -1
1030, 1029, 1006, -1
1029, 1020, 1005, -1
1001, 1014, 1013, -1
144, 143, 1013, -1
1028, 1036, 1040, -1
1027, 1040, 1039, -1
157, 156, 1009, -1
1009, 1010, 997, -1
945, 1018, 1017, -1
167, 166, 1017, -1
1031, 1030, 1007, -1
1016, 1024, 1028, -1
1015, 1028, 1027, -1
1010, 1011, 998, -1
134, 133, 1008, -1
1008, 1007, 996, -1
946, 1019, 1018, -1
990, 1002, 1001, -1
143, 142, 1001, -1
1002, 1015, 1014, -1
1012, 1004, 1000, -1
1011, 1012, 999, -1
159, 158, 986, -1
986, 987, 978, -1
948, 1005, 1020, -1
947, 1020, 1019, -1
1004, 1012, 1016, -1
1003, 1016, 1015, -1
998, 999, 987, -1
987, 988, 979, -1
1006, 1005, 994, -1
1005, 948, 949, -1
982, 991, 990, -1
142, 141, 990, -1
991, 1003, 1002, -1
1000, 993, 989, -1
999, 1000, 988, -1
162, 161, 959, -1
959, 960, 956, -1
1007, 1006, 995, -1
993, 1000, 1004, -1
992, 1004, 1003, -1
160, 159, 978, -1
978, 979, 967, -1
995, 994, 976, -1
994, 949, 950, -1
971, 983, 982, -1
141, 140, 982, -1
983, 992, 991, -1
989, 985, 981, -1
988, 989, 980, -1
979, 980, 968, -1
135, 134, 996, -1
996, 995, 977, -1
985, 989, 993, -1
984, 993, 992, -1
161, 160, 967, -1
967, 968, 959, -1
164, 163, 954, -1
954, 955, 953, -1
963, 972, 971, -1
140, 139, 971, -1
972, 984, 983, -1
981, 974, 970, -1
980, 981, 969, -1
968, 969, 960, -1
960, 961, 957, -1
136, 135, 977, -1
977, 976, 975, -1
952, 964, 963, -1
139, 138, 963, -1
974, 981, 985, -1
973, 985, 984, -1
962, 949, 948, -1
961, 962, 958, -1
955, 947, 946, -1
976, 950, 951, -1
951, 965, 964, -1
964, 973, 972, -1
970, 966, 962, -1
969, 970, 961, -1
163, 162, 956, -1
956, 957, 954, -1
137, 136, 975, -1
975, 951, 952, -1
966, 970, 974, -1
965, 974, 973, -1
958, 948, 947, -1
957, 958, 955, -1
165, 164, 953, -1
953, 946, 945, -1
949, 962, 966, -1
950, 966, 965, -1
952, 138, 137, -1
166, 165, 945, -1
125, 944, 933, -1
122, 121, 938, -1
944, 125, 124, -1
942, 932, 944, -1
123, 941, 943, -1
933, 932, 925, -1
940, 931, 942, -1
930, 931, 940, -1
927, 928, 935, -1
935, 936, 939, -1
120, 119, 937, -1
120, 934, 938, -1
191, 126, 937, -1
936, 928, 929, -1
931, 930, 923, -1
930, 929, 922, -1
932, 931, 924, -1
918, 927, 926, -1
925, 924, 917, -1
919, 928, 927, -1
901, 911, 910, -1
921, 922, 929, -1
920, 929, 928, -1
910, 919, 918, -1
923, 922, 915, -1
922, 921, 914, -1
147, 905, 867, -1
915, 914, 907, -1
914, 913, 906, -1
911, 920, 919, -1
924, 923, 916, -1
905, 147, 148, -1
917, 916, 909, -1
913, 914, 921, -1
912, 921, 920, -1
907, 906, 897, -1
906, 904, 896, -1
902, 912, 911, -1
916, 915, 908, -1
909, 908, 899, -1
904, 906, 913, -1
903, 913, 912, -1
892, 902, 901, -1
908, 907, 898, -1
899, 898, 890, -1
893, 903, 902, -1
891, 868, 905, -1
895, 896, 904, -1
894, 904, 903, -1
882, 893, 892, -1
897, 896, 888, -1
896, 895, 887, -1
149, 886, 900, -1
883, 894, 893, -1
898, 897, 889, -1
885, 887, 895, -1
884, 895, 894, -1
890, 889, 879, -1
881, 869, 891, -1
888, 887, 877, -1
887, 885, 876, -1
150, 151, 875, -1
855, 883, 882, -1
889, 888, 878, -1
879, 878, 846, -1
856, 884, 883, -1
870, 869, 881, -1
858, 876, 885, -1
857, 885, 884, -1
873, 874, 880, -1
877, 876, 844, -1
876, 858, 843, -1
864, 865, 873, -1
867, 868, 859, -1
878, 877, 845, -1
152, 871, 875, -1
859, 860, 847, -1
152, 153, 872, -1
874, 865, 866, -1
868, 869, 860, -1
835, 836, 823, -1
193, 154, 872, -1
870, 866, 862, -1
869, 870, 861, -1
860, 861, 848, -1
836, 837, 824, -1
851, 864, 863, -1
847, 848, 835, -1
831, 856, 855, -1
839, 852, 851, -1
852, 865, 864, -1
862, 854, 850, -1
861, 862, 849, -1
848, 849, 836, -1
846, 845, 782, -1
832, 857, 856, -1
827, 840, 839, -1
854, 862, 866, -1
853, 866, 865, -1
838, 830, 826, -1
837, 838, 825, -1
834, 843, 858, -1
833, 858, 857, -1
828, 841, 840, -1
840, 853, 852, -1
850, 842, 838, -1
849, 850, 837, -1
815, 816, 804, -1
844, 843, 780, -1
843, 834, 779, -1
819, 828, 827, -1
842, 850, 854, -1
841, 854, 853, -1
823, 824, 815, -1
812, 832, 831, -1
845, 844, 781, -1
830, 838, 842, -1
829, 842, 841, -1
824, 825, 816, -1
796, 797, 775, -1
813, 833, 832, -1
808, 820, 819, -1
820, 829, 828, -1
826, 822, 818, -1
825, 826, 817, -1
816, 817, 805, -1
778, 779, 834, -1
814, 834, 833, -1
822, 826, 830, -1
821, 830, 829, -1
804, 805, 796, -1
797, 798, 776, -1
800, 809, 808, -1
809, 821, 820, -1
818, 811, 807, -1
817, 818, 806, -1
799, 793, 778, -1
798, 799, 777, -1
790, 801, 800, -1
811, 818, 822, -1
810, 822, 821, -1
805, 806, 797, -1
794, 813, 812, -1
787, 791, 790, -1
791, 802, 801, -1
801, 810, 809, -1
807, 803, 799, -1
806, 807, 798, -1
777, 778, 814, -1
795, 814, 813, -1
788, 792, 791, -1
803, 807, 811, -1
802, 811, 810, -1
786, 795, 794, -1
784, 788, 787, -1
793, 799, 803, -1
792, 803, 802, -1
776, 777, 795, -1
779, 778, 793, -1
789, 793, 792, -1
780, 779, 789, -1
785, 789, 788, -1
783, 785, 784, -1
775, 776, 786, -1
781, 780, 785, -1
782, 781, 783, -1
933, 174, 125, -1
190, 125, 174, -1
938, 939, 122, -1
122, 939, 941, -1
124, 943, 944, -1
932, 933, 944, -1
944, 943, 942, -1
941, 942, 943, -1
943, 124, 123, -1
123, 122, 941, -1
173, 174, 933, -1
925, 173, 933, -1
931, 932, 942, -1
942, 941, 940, -1
940, 936, 930, -1
936, 940, 939, -1
939, 940, 941, -1
928, 936, 935, -1
935, 934, 927, -1
939, 938, 935, -1
937, 926, 934, -1
937, 934, 120, -1
934, 935, 938, -1
938, 121, 120, -1
126, 926, 937, -1
937, 119, 191, -1
929, 930, 936, -1
923, 924, 931, -1
922, 923, 930, -1
926, 927, 934, -1
924, 925, 932, -1
926, 127, 918, -1
126, 127, 926, -1
172, 173, 925, -1
917, 172, 925, -1
927, 918, 919, -1
910, 129, 901, -1
128, 129, 910, -1
929, 920, 921, -1
928, 919, 920, -1
918, 128, 910, -1
127, 128, 918, -1
915, 916, 923, -1
914, 915, 922, -1
146, 192, 147, -1
867, 146, 147, -1
907, 908, 915, -1
906, 907, 914, -1
919, 910, 911, -1
916, 917, 924, -1
148, 900, 905, -1
171, 172, 917, -1
909, 171, 917, -1
921, 912, 913, -1
920, 911, 912, -1
897, 898, 907, -1
896, 897, 906, -1
911, 901, 902, -1
908, 909, 916, -1
170, 171, 909, -1
899, 170, 909, -1
913, 903, 904, -1
912, 902, 903, -1
901, 130, 892, -1
129, 130, 901, -1
898, 899, 908, -1
169, 170, 899, -1
890, 169, 899, -1
902, 892, 893, -1
868, 867, 905, -1
905, 900, 891, -1
904, 894, 895, -1
903, 893, 894, -1
892, 131, 882, -1
130, 131, 892, -1
888, 889, 897, -1
887, 888, 896, -1
886, 891, 900, -1
900, 148, 149, -1
893, 882, 883, -1
889, 890, 898, -1
895, 884, 885, -1
894, 883, 884, -1
168, 169, 890, -1
879, 168, 890, -1
869, 868, 891, -1
891, 886, 881, -1
877, 878, 888, -1
876, 877, 887, -1
875, 880, 150, -1
150, 880, 886, -1
882, 132, 855, -1
131, 132, 882, -1
878, 879, 889, -1
149, 150, 886, -1
167, 168, 879, -1
846, 167, 879, -1
883, 855, 856, -1
881, 874, 870, -1
874, 881, 880, -1
880, 881, 886, -1
885, 857, 858, -1
884, 856, 857, -1
880, 875, 873, -1
844, 845, 877, -1
843, 844, 876, -1
865, 874, 873, -1
873, 871, 864, -1
145, 146, 867, -1
859, 145, 867, -1
845, 846, 878, -1
871, 873, 875, -1
875, 151, 152, -1
144, 145, 859, -1
847, 144, 859, -1
872, 863, 871, -1
872, 871, 152, -1
866, 870, 874, -1
860, 859, 868, -1
142, 143, 835, -1
823, 142, 835, -1
154, 863, 872, -1
872, 153, 193, -1
862, 861, 870, -1
861, 860, 869, -1
848, 847, 860, -1
824, 823, 836, -1
863, 155, 851, -1
154, 155, 863, -1
863, 864, 871, -1
143, 144, 847, -1
835, 143, 847, -1
855, 133, 831, -1
132, 133, 855, -1
851, 156, 839, -1
155, 156, 851, -1
864, 851, 852, -1
850, 849, 862, -1
849, 848, 861, -1
836, 835, 848, -1
166, 167, 846, -1
782, 166, 846, -1
856, 831, 832, -1
839, 157, 827, -1
156, 157, 839, -1
866, 853, 854, -1
865, 852, 853, -1
826, 825, 838, -1
825, 824, 837, -1
858, 833, 834, -1
857, 832, 833, -1
840, 827, 828, -1
852, 839, 840, -1
838, 837, 850, -1
837, 836, 849, -1
140, 141, 815, -1
804, 140, 815, -1
780, 781, 844, -1
779, 780, 843, -1
827, 158, 819, -1
157, 158, 827, -1
854, 841, 842, -1
853, 840, 841, -1
141, 142, 823, -1
815, 141, 823, -1
831, 134, 812, -1
133, 134, 831, -1
781, 782, 845, -1
842, 829, 830, -1
841, 828, 829, -1
816, 815, 824, -1
138, 139, 796, -1
775, 138, 796, -1
832, 812, 813, -1
819, 159, 808, -1
158, 159, 819, -1
828, 819, 820, -1
818, 817, 826, -1
817, 816, 825, -1
805, 804, 816, -1
834, 814, 778, -1
833, 813, 814, -1
830, 821, 822, -1
829, 820, 821, -1
139, 140, 804, -1
796, 139, 804, -1
776, 775, 797, -1
808, 160, 800, -1
159, 160, 808, -1
820, 808, 809, -1
807, 806, 818, -1
806, 805, 817, -1
778, 777, 799, -1
777, 776, 798, -1
800, 161, 790, -1
160, 161, 800, -1
822, 810, 811, -1
821, 809, 810, -1
797, 796, 805, -1
812, 135, 794, -1
134, 135, 812, -1
790, 162, 787, -1
161, 162, 790, -1
801, 790, 791, -1
809, 800, 801, -1
799, 798, 807, -1
798, 797, 806, -1
814, 795, 777, -1
813, 794, 795, -1
791, 787, 788, -1
811, 802, 803, -1
810, 801, 802, -1
794, 136, 786, -1
135, 136, 794, -1
787, 163, 784, -1
162, 163, 787, -1
803, 792, 793, -1
802, 791, 792, -1
795, 786, 776, -1
793, 789, 779, -1
792, 788, 789, -1
789, 785, 780, -1
788, 784, 785, -1
784, 164, 783, -1
163, 164, 784, -1
786, 137, 775, -1
136, 137, 786, -1
785, 783, 781, -1
783, 165, 782, -1
164, 165, 783, -1
137, 138, 775, -1
165, 166, 782, -1
191, 119, 774, -1
773, 116, 774, -1
772, 768, 767, -1
89, 88, 770, -1
769, 117, 773, -1
745, 746, 754, -1
765, 766, 771, -1
186, 118, 770, -1
767, 766, 763, -1
764, 120, 760, -1
766, 765, 762, -1
763, 762, 759, -1
761, 762, 765, -1
760, 121, 750, -1
762, 761, 758, -1
753, 759, 758, -1
751, 758, 761, -1
748, 749, 756, -1
747, 748, 755, -1
754, 755, 759, -1
757, 756, 749, -1
742, 745, 744, -1
750, 122, 734, -1
741, 740, 733, -1
736, 744, 752, -1
735, 752, 751, -1
742, 106, 105, -1
740, 741, 748, -1
739, 740, 747, -1
734, 123, 728, -1
743, 738, 746, -1
749, 748, 741, -1
94, 732, 731, -1
125, 108, 730, -1
732, 94, 93, -1
729, 728, 124, -1
119, 764, 774, -1
774, 116, 191, -1
774, 771, 773, -1
764, 771, 774, -1
773, 117, 116, -1
772, 769, 768, -1
767, 757, 772, -1
770, 769, 772, -1
770, 772, 89, -1
773, 768, 769, -1
771, 768, 773, -1
757, 89, 772, -1
754, 753, 745, -1
744, 745, 753, -1
766, 768, 771, -1
771, 764, 765, -1
118, 769, 770, -1
770, 88, 186, -1
769, 118, 117, -1
756, 757, 767, -1
763, 756, 767, -1
766, 767, 768, -1
760, 765, 764, -1
119, 120, 764, -1
762, 763, 766, -1
755, 756, 763, -1
759, 755, 763, -1
765, 760, 761, -1
750, 761, 760, -1
120, 121, 760, -1
758, 759, 762, -1
758, 752, 753, -1
751, 752, 758, -1
761, 750, 751, -1
756, 755, 748, -1
755, 754, 747, -1
759, 753, 754, -1
90, 89, 757, -1
749, 90, 757, -1
746, 747, 754, -1
744, 737, 742, -1
736, 737, 744, -1
752, 744, 753, -1
734, 751, 750, -1
121, 122, 750, -1
92, 91, 741, -1
733, 92, 741, -1
752, 735, 736, -1
751, 734, 735, -1
105, 104, 743, -1
105, 743, 742, -1
748, 747, 740, -1
747, 746, 739, -1
728, 735, 734, -1
122, 123, 734, -1
732, 733, 740, -1
738, 739, 746, -1
746, 745, 743, -1
91, 90, 749, -1
741, 91, 749, -1
728, 729, 735, -1
732, 740, 739, -1
104, 738, 743, -1
742, 743, 745, -1
729, 736, 735, -1
731, 732, 739, -1
737, 106, 742, -1
729, 730, 736, -1
731, 739, 738, -1
102, 189, 94, -1
731, 102, 94, -1
730, 737, 736, -1
103, 731, 738, -1
125, 190, 108, -1
730, 729, 125, -1
93, 733, 732, -1
730, 107, 737, -1
104, 103, 738, -1
124, 125, 729, -1
93, 92, 733, -1
107, 106, 737, -1
123, 124, 728, -1
103, 102, 731, -1
108, 107, 730, -1
114, 115, 725, -1
724, 118, 727, -1
186, 23, 727, -1
726, 722, 720, -1
191, 116, 725, -1
721, 117, 724, -1
718, 719, 723, -1
720, 719, 716, -1
719, 718, 715, -1
717, 22, 713, -1
716, 715, 712, -1
714, 715, 718, -1
715, 714, 711, -1
713, 21, 700, -1
690, 689, 683, -1
701, 711, 714, -1
694, 19, 686, -1
708, 709, 703, -1
706, 712, 711, -1
705, 704, 710, -1
704, 703, 709, -1
707, 710, 712, -1
696, 698, 699, -1
17, 102, 684, -1
698, 707, 706, -1
689, 690, 704, -1
688, 689, 705, -1
696, 104, 105, -1
685, 686, 18, -1
703, 704, 690, -1
695, 687, 697, -1
109, 682, 681, -1
700, 20, 694, -1
682, 109, 110, -1
692, 699, 702, -1
693, 702, 701, -1
725, 721, 726, -1
725, 726, 114, -1
727, 717, 723, -1
727, 723, 724, -1
23, 717, 727, -1
727, 118, 186, -1
114, 726, 708, -1
720, 708, 726, -1
721, 722, 726, -1
116, 721, 725, -1
725, 115, 191, -1
724, 723, 722, -1
724, 722, 721, -1
722, 719, 720, -1
117, 118, 724, -1
719, 722, 723, -1
723, 717, 718, -1
709, 708, 720, -1
716, 709, 720, -1
116, 117, 721, -1
715, 716, 719, -1
713, 718, 717, -1
23, 22, 717, -1
710, 709, 716, -1
712, 710, 716, -1
718, 713, 714, -1
711, 712, 715, -1
700, 714, 713, -1
22, 21, 713, -1
111, 112, 690, -1
683, 111, 690, -1
714, 700, 701, -1
682, 683, 689, -1
694, 20, 19, -1
686, 693, 694, -1
682, 689, 688, -1
113, 114, 708, -1
703, 113, 708, -1
693, 686, 685, -1
711, 702, 706, -1
701, 702, 711, -1
710, 707, 705, -1
709, 710, 704, -1
692, 693, 685, -1
681, 682, 688, -1
712, 706, 707, -1
692, 685, 684, -1
681, 688, 687, -1
699, 692, 691, -1
699, 691, 696, -1
684, 685, 17, -1
189, 102, 17, -1
698, 697, 707, -1
706, 699, 698, -1
704, 705, 689, -1
705, 697, 688, -1
105, 106, 695, -1
105, 695, 696, -1
691, 692, 684, -1
18, 17, 685, -1
107, 681, 687, -1
702, 699, 706, -1
112, 113, 703, -1
690, 112, 703, -1
687, 688, 697, -1
697, 698, 695, -1
106, 687, 695, -1
103, 691, 684, -1
108, 190, 109, -1
681, 108, 109, -1
694, 701, 700, -1
21, 20, 700, -1
697, 705, 707, -1
698, 696, 695, -1
104, 696, 691, -1
103, 104, 691, -1
686, 19, 18, -1
110, 683, 682, -1
702, 693, 692, -1
701, 694, 693, -1
102, 103, 684, -1
110, 111, 683, -1
106, 107, 687, -1
107, 108, 681, -1
671, 96, 97, -1
98, 677, 680, -1
653, 664, 679, -1
667, 671, 672, -1
678, 676, 674, -1
670, 676, 679, -1
673, 668, 665, -1
673, 672, 677, -1
676, 669, 675, -1
670, 660, 661, -1
660, 50, 649, -1
663, 665, 668, -1
669, 661, 662, -1
671, 667, 656, -1
661, 649, 650, -1
656, 63, 62, -1
666, 665, 658, -1
665, 663, 657, -1
664, 52, 51, -1
667, 666, 659, -1
652, 657, 663, -1
651, 663, 662, -1
657, 652, 645, -1
101, 53, 653, -1
648, 655, 659, -1
647, 659, 658, -1
95, 96, 654, -1
649, 49, 641, -1
638, 639, 646, -1
637, 638, 645, -1
650, 641, 642, -1
640, 65, 648, -1
652, 643, 644, -1
651, 642, 643, -1
639, 640, 647, -1
641, 48, 633, -1
630, 631, 638, -1
629, 630, 637, -1
642, 633, 634, -1
632, 66, 640, -1
644, 635, 636, -1
643, 634, 635, -1
631, 632, 639, -1
633, 47, 625, -1
622, 623, 630, -1
621, 622, 629, -1
634, 625, 626, -1
624, 67, 632, -1
636, 627, 628, -1
635, 626, 627, -1
623, 624, 631, -1
625, 46, 617, -1
614, 615, 622, -1
613, 614, 621, -1
626, 617, 618, -1
616, 68, 624, -1
628, 619, 620, -1
627, 618, 619, -1
615, 616, 623, -1
617, 45, 609, -1
606, 607, 614, -1
605, 606, 613, -1
618, 609, 610, -1
608, 69, 616, -1
620, 611, 612, -1
619, 610, 611, -1
607, 608, 615, -1
609, 44, 601, -1
598, 599, 606, -1
597, 598, 605, -1
610, 601, 602, -1
600, 70, 608, -1
612, 603, 604, -1
611, 602, 603, -1
599, 600, 607, -1
601, 43, 593, -1
590, 591, 598, -1
589, 590, 597, -1
602, 593, 594, -1
600, 599, 592, -1
604, 595, 596, -1
603, 594, 595, -1
591, 592, 599, -1
593, 42, 585, -1
582, 583, 590, -1
581, 582, 589, -1
594, 585, 586, -1
592, 591, 584, -1
596, 587, 588, -1
595, 586, 587, -1
591, 590, 583, -1
585, 41, 577, -1
582, 581, 574, -1
573, 574, 581, -1
586, 577, 578, -1
584, 583, 576, -1
588, 579, 580, -1
587, 578, 579, -1
583, 582, 575, -1
569, 578, 577, -1
574, 573, 566, -1
573, 572, 565, -1
578, 569, 570, -1
576, 575, 568, -1
580, 571, 572, -1
579, 570, 571, -1
575, 574, 567, -1
561, 570, 569, -1
568, 567, 560, -1
562, 571, 570, -1
544, 554, 553, -1
572, 563, 564, -1
571, 562, 563, -1
553, 562, 561, -1
566, 565, 558, -1
565, 564, 557, -1
90, 510, 507, -1
558, 557, 550, -1
557, 556, 549, -1
554, 563, 562, -1
567, 566, 559, -1
560, 559, 552, -1
564, 555, 556, -1
555, 564, 563, -1
550, 549, 541, -1
549, 547, 540, -1
545, 555, 554, -1
559, 558, 551, -1
552, 551, 543, -1
556, 546, 547, -1
546, 556, 555, -1
551, 550, 542, -1
535, 545, 544, -1
94, 515, 548, -1
541, 540, 528, -1
540, 538, 527, -1
536, 546, 545, -1
534, 539, 548, -1
543, 542, 530, -1
547, 537, 538, -1
537, 547, 546, -1
92, 93, 539, -1
523, 536, 535, -1
542, 541, 529, -1
94, 189, 87, -1
530, 529, 521, -1
524, 537, 536, -1
504, 507, 510, -1
91, 92, 533, -1
511, 33, 487, -1
538, 525, 526, -1
525, 538, 537, -1
517, 532, 534, -1
493, 505, 506, -1
511, 524, 523, -1
528, 527, 519, -1
527, 526, 518, -1
463, 15, 459, -1
509, 531, 532, -1
468, 479, 480, -1
27, 26, 479, -1
519, 518, 500, -1
518, 514, 499, -1
512, 525, 524, -1
529, 528, 520, -1
15, 463, 462, -1
515, 86, 495, -1
186, 88, 522, -1
481, 493, 494, -1
487, 32, 476, -1
521, 520, 502, -1
526, 513, 514, -1
525, 512, 513, -1
483, 84, 472, -1
516, 495, 496, -1
89, 507, 522, -1
491, 503, 504, -1
25, 24, 503, -1
479, 491, 492, -1
26, 25, 491, -1
469, 480, 481, -1
500, 499, 454, -1
499, 490, 453, -1
512, 487, 488, -1
520, 519, 501, -1
485, 473, 474, -1
495, 85, 483, -1
506, 509, 508, -1
497, 508, 517, -1
492, 504, 505, -1
480, 492, 493, -1
449, 468, 469, -1
468, 449, 28, -1
502, 501, 456, -1
514, 489, 490, -1
513, 488, 489, -1
472, 83, 462, -1
484, 472, 473, -1
496, 483, 484, -1
470, 481, 482, -1
476, 31, 466, -1
488, 476, 477, -1
501, 500, 455, -1
464, 465, 475, -1
498, 485, 486, -1
497, 484, 485, -1
451, 470, 471, -1
466, 30, 461, -1
490, 478, 452, -1
489, 477, 478, -1
460, 453, 465, -1
450, 469, 470, -1
478, 467, 451, -1
477, 466, 467, -1
467, 461, 450, -1
458, 454, 460, -1
461, 29, 449, -1
14, 458, 459, -1
455, 454, 458, -1
457, 458, 14, -1
82, 456, 457, -1
97, 680, 671, -1
671, 680, 672, -1
677, 672, 680, -1
680, 97, 98, -1
679, 678, 653, -1
100, 653, 678, -1
672, 666, 667, -1
666, 672, 673, -1
99, 100, 678, -1
674, 99, 678, -1
98, 674, 677, -1
676, 678, 679, -1
679, 664, 670, -1
98, 99, 674, -1
665, 666, 673, -1
677, 675, 673, -1
674, 675, 677, -1
675, 674, 676, -1
670, 669, 676, -1
675, 668, 673, -1
661, 669, 670, -1
660, 670, 664, -1
669, 668, 675, -1
649, 661, 660, -1
51, 50, 660, -1
668, 662, 663, -1
662, 668, 669, -1
654, 96, 671, -1
656, 654, 671, -1
650, 662, 661, -1
62, 654, 656, -1
63, 656, 655, -1
658, 659, 666, -1
657, 658, 665, -1
51, 660, 664, -1
52, 664, 653, -1
64, 63, 655, -1
655, 656, 667, -1
659, 655, 667, -1
663, 651, 652, -1
662, 650, 651, -1
646, 658, 657, -1
645, 646, 657, -1
53, 52, 653, -1
653, 100, 101, -1
659, 647, 648, -1
658, 646, 647, -1
61, 188, 95, -1
654, 61, 95, -1
648, 64, 655, -1
187, 53, 101, -1
62, 61, 654, -1
641, 650, 649, -1
50, 49, 649, -1
646, 645, 638, -1
645, 644, 637, -1
642, 651, 650, -1
65, 64, 648, -1
648, 647, 640, -1
644, 645, 652, -1
643, 652, 651, -1
647, 646, 639, -1
633, 642, 641, -1
49, 48, 641, -1
638, 637, 630, -1
637, 636, 629, -1
634, 643, 642, -1
66, 65, 640, -1
640, 639, 632, -1
636, 637, 644, -1
635, 644, 643, -1
639, 638, 631, -1
625, 634, 633, -1
48, 47, 633, -1
630, 629, 622, -1
629, 628, 621, -1
626, 635, 634, -1
67, 66, 632, -1
632, 631, 624, -1
628, 629, 636, -1
627, 636, 635, -1
631, 630, 623, -1
617, 626, 625, -1
47, 46, 625, -1
622, 621, 614, -1
621, 620, 613, -1
618, 627, 626, -1
68, 67, 624, -1
624, 623, 616, -1
620, 621, 628, -1
619, 628, 627, -1
623, 622, 615, -1
609, 618, 617, -1
46, 45, 617, -1
614, 613, 606, -1
613, 612, 605, -1
610, 619, 618, -1
69, 68, 616, -1
616, 615, 608, -1
612, 613, 620, -1
611, 620, 619, -1
615, 614, 607, -1
601, 610, 609, -1
45, 44, 609, -1
606, 605, 598, -1
605, 604, 597, -1
602, 611, 610, -1
70, 69, 608, -1
608, 607, 600, -1
604, 605, 612, -1
603, 612, 611, -1
607, 606, 599, -1
593, 602, 601, -1
44, 43, 601, -1
598, 597, 590, -1
597, 596, 589, -1
594, 603, 602, -1
71, 70, 600, -1
592, 71, 600, -1
596, 597, 604, -1
595, 604, 603, -1
599, 598, 591, -1
585, 594, 593, -1
43, 42, 593, -1
590, 589, 582, -1
589, 588, 581, -1
586, 595, 594, -1
72, 71, 592, -1
584, 72, 592, -1
588, 589, 596, -1
587, 596, 595, -1
583, 584, 591, -1
577, 586, 585, -1
42, 41, 585, -1
574, 575, 582, -1
581, 580, 573, -1
578, 587, 586, -1
73, 72, 584, -1
576, 73, 584, -1
580, 581, 588, -1
579, 588, 587, -1
575, 576, 583, -1
577, 40, 569, -1
41, 40, 577, -1
566, 567, 574, -1
565, 566, 573, -1
570, 579, 578, -1
74, 73, 576, -1
568, 74, 576, -1
572, 573, 580, -1
571, 580, 579, -1
567, 568, 575, -1
569, 39, 561, -1
40, 39, 569, -1
75, 74, 568, -1
560, 75, 568, -1
570, 561, 562, -1
553, 37, 544, -1
38, 37, 553, -1
564, 565, 572, -1
563, 572, 571, -1
561, 38, 553, -1
39, 38, 561, -1
558, 559, 566, -1
557, 558, 565, -1
90, 531, 510, -1
507, 89, 90, -1
550, 551, 558, -1
549, 550, 557, -1
562, 553, 554, -1
559, 560, 567, -1
90, 91, 531, -1
76, 75, 560, -1
552, 76, 560, -1
556, 557, 564, -1
563, 554, 555, -1
541, 542, 550, -1
540, 541, 549, -1
554, 544, 545, -1
551, 552, 559, -1
77, 76, 552, -1
543, 77, 552, -1
547, 549, 556, -1
555, 545, 546, -1
531, 509, 510, -1
542, 543, 551, -1
544, 36, 535, -1
37, 36, 544, -1
548, 93, 94, -1
93, 548, 539, -1
528, 529, 541, -1
527, 528, 540, -1
545, 535, 536, -1
548, 516, 534, -1
515, 516, 548, -1
78, 77, 543, -1
530, 78, 543, -1
538, 540, 547, -1
546, 536, 537, -1
539, 534, 533, -1
539, 533, 92, -1
535, 35, 523, -1
36, 35, 535, -1
529, 530, 542, -1
87, 515, 94, -1
79, 78, 530, -1
521, 79, 530, -1
536, 523, 524, -1
510, 505, 504, -1
505, 510, 509, -1
533, 532, 531, -1
533, 531, 91, -1
487, 512, 511, -1
34, 33, 511, -1
526, 527, 538, -1
537, 524, 525, -1
532, 533, 534, -1
534, 516, 517, -1
506, 498, 494, -1
506, 494, 493, -1
523, 34, 511, -1
35, 34, 523, -1
519, 520, 528, -1
518, 519, 527, -1
459, 460, 464, -1
459, 464, 463, -1
532, 508, 509, -1
517, 508, 532, -1
480, 469, 468, -1
479, 468, 27, -1
500, 501, 519, -1
499, 500, 518, -1
524, 511, 512, -1
520, 521, 529, -1
462, 185, 15, -1
495, 516, 515, -1
87, 86, 515, -1
522, 24, 186, -1
24, 522, 503, -1
494, 486, 482, -1
494, 482, 481, -1
476, 488, 487, -1
33, 32, 487, -1
80, 79, 521, -1
502, 80, 521, -1
514, 518, 526, -1
513, 526, 525, -1
472, 484, 483, -1
85, 84, 483, -1
506, 505, 509, -1
496, 517, 516, -1
507, 503, 522, -1
522, 88, 89, -1
504, 492, 491, -1
503, 491, 25, -1
492, 480, 479, -1
491, 479, 26, -1
481, 470, 469, -1
454, 455, 500, -1
453, 454, 499, -1
488, 513, 512, -1
501, 502, 520, -1
474, 475, 486, -1
474, 486, 485, -1
483, 496, 495, -1
86, 85, 495, -1
508, 498, 506, -1
517, 496, 497, -1
507, 504, 503, -1
505, 493, 492, -1
493, 481, 480, -1
469, 450, 449, -1
28, 27, 468, -1
81, 80, 502, -1
456, 81, 502, -1
490, 499, 514, -1
489, 514, 513, -1
462, 463, 473, -1
462, 473, 472, -1
473, 485, 484, -1
484, 497, 496, -1
497, 498, 508, -1
482, 475, 471, -1
482, 471, 470, -1
466, 477, 476, -1
32, 31, 476, -1
477, 489, 488, -1
455, 456, 501, -1
475, 474, 464, -1
463, 464, 474, -1
84, 83, 472, -1
486, 494, 498, -1
485, 498, 497, -1
471, 465, 452, -1
471, 452, 451, -1
461, 467, 466, -1
31, 30, 466, -1
452, 453, 490, -1
478, 490, 489, -1
465, 464, 460, -1
463, 474, 473, -1
475, 482, 486, -1
470, 451, 450, -1
451, 452, 478, -1
467, 478, 477, -1
83, 185, 462, -1
465, 471, 475, -1
450, 451, 467, -1
453, 452, 465, -1
454, 453, 460, -1
460, 459, 458, -1
449, 450, 461, -1
30, 29, 461, -1
459, 15, 14, -1
458, 457, 455, -1
14, 184, 457, -1
456, 455, 457, -1
457, 184, 82, -1
29, 28, 449, -1
82, 81, 456, -1
22, 434, 448, -1
17, 441, 87, -1
19, 444, 442, -1
439, 440, 444, -1
20, 21, 447, -1
448, 446, 447, -1
22, 23, 438, -1
436, 443, 446, -1
440, 439, 428, -1
439, 437, 427, -1
437, 439, 443, -1
441, 440, 429, -1
432, 433, 436, -1
186, 24, 438, -1
424, 425, 433, -1
433, 426, 437, -1
422, 423, 431, -1
25, 422, 430, -1
423, 424, 432, -1
427, 426, 419, -1
426, 425, 418, -1
414, 415, 423, -1
26, 414, 422, -1
428, 427, 420, -1
416, 417, 425, -1
429, 428, 421, -1
415, 416, 424, -1
419, 418, 410, -1
418, 417, 409, -1
407, 408, 417, -1
420, 419, 411, -1
402, 401, 393, -1
401, 400, 392, -1
421, 420, 412, -1
395, 396, 406, -1
405, 27, 28, -1
405, 406, 415, -1
27, 405, 414, -1
57, 58, 413, -1
410, 409, 401, -1
409, 408, 400, -1
406, 407, 416, -1
349, 399, 404, -1
0, 185, 403, -1
396, 397, 407, -1
411, 410, 402, -1
381, 413, 58, -1
398, 397, 386, -1
412, 411, 403, -1
387, 386, 373, -1
397, 396, 385, -1
397, 398, 408, -1
377, 367, 404, -1
396, 395, 384, -1
399, 56, 388, -1
391, 378, 379, -1
395, 28, 29, -1
394, 388, 389, -1
1, 0, 393, -1
392, 379, 380, -1
383, 389, 390, -1
363, 364, 345, -1
385, 384, 371, -1
368, 369, 382, -1
364, 365, 346, -1
384, 29, 30, -1
383, 369, 370, -1
372, 371, 351, -1
376, 375, 365, -1
366, 365, 375, -1
348, 347, 366, -1
347, 346, 365, -1
361, 362, 379, -1
378, 374, 360, -1
342, 343, 358, -1
341, 342, 357, -1
381, 350, 355, -1
374, 353, 354, -1
362, 273, 380, -1
377, 376, 364, -1
282, 352, 351, -1
355, 350, 62, -1
368, 356, 357, -1
367, 363, 51, -1
345, 346, 337, -1
303, 304, 361, -1
360, 354, 302, -1
370, 358, 359, -1
369, 357, 358, -1
329, 330, 321, -1
304, 272, 362, -1
359, 343, 344, -1
346, 347, 338, -1
330, 331, 322, -1
283, 353, 352, -1
333, 342, 341, -1
337, 338, 329, -1
354, 284, 285, -1
284, 354, 353, -1
60, 61, 350, -1
348, 344, 340, -1
347, 348, 339, -1
338, 339, 330, -1
313, 314, 305, -1
325, 334, 333, -1
54, 55, 349, -1
340, 336, 332, -1
339, 340, 331, -1
321, 322, 313, -1
314, 315, 306, -1
317, 326, 325, -1
326, 335, 334, -1
334, 343, 342, -1
332, 328, 324, -1
331, 332, 323, -1
322, 323, 314, -1
294, 295, 286, -1
309, 318, 317, -1
318, 327, 326, -1
336, 340, 344, -1
335, 344, 343, -1
324, 320, 316, -1
323, 324, 315, -1
305, 306, 294, -1
304, 303, 222, -1
298, 310, 309, -1
310, 319, 318, -1
328, 332, 336, -1
327, 336, 335, -1
316, 312, 308, -1
315, 316, 307, -1
306, 307, 295, -1
286, 287, 274, -1
290, 299, 298, -1
299, 311, 310, -1
320, 324, 328, -1
319, 328, 327, -1
308, 301, 297, -1
307, 308, 296, -1
295, 296, 287, -1
264, 41, 274, -1
290, 71, 278, -1
291, 300, 299, -1
312, 316, 320, -1
311, 320, 319, -1
297, 293, 289, -1
296, 297, 288, -1
287, 288, 275, -1
245, 39, 256, -1
278, 72, 268, -1
279, 292, 291, -1
301, 308, 312, -1
300, 312, 311, -1
289, 281, 277, -1
288, 289, 276, -1
265, 264, 275, -1
253, 283, 282, -1
269, 280, 279, -1
293, 297, 301, -1
292, 301, 300, -1
277, 271, 267, -1
276, 277, 266, -1
246, 245, 257, -1
254, 284, 283, -1
268, 73, 260, -1
281, 289, 293, -1
280, 293, 292, -1
256, 40, 264, -1
219, 220, 285, -1
255, 285, 284, -1
271, 277, 281, -1
270, 281, 280, -1
257, 256, 265, -1
273, 82, 184, -1
260, 74, 249, -1
261, 270, 269, -1
259, 258, 267, -1
258, 257, 266, -1
216, 37, 237, -1
81, 82, 272, -1
263, 267, 271, -1
262, 271, 270, -1
237, 38, 245, -1
217, 216, 238, -1
249, 75, 241, -1
250, 262, 261, -1
248, 247, 259, -1
247, 246, 258, -1
240, 234, 219, -1
218, 217, 239, -1
231, 242, 241, -1
252, 259, 263, -1
251, 263, 262, -1
238, 237, 246, -1
235, 254, 253, -1
228, 232, 231, -1
232, 243, 242, -1
242, 251, 250, -1
240, 239, 248, -1
239, 238, 247, -1
218, 219, 255, -1
236, 255, 254, -1
229, 233, 232, -1
244, 248, 252, -1
243, 252, 251, -1
227, 236, 235, -1
225, 229, 228, -1
234, 240, 244, -1
233, 244, 243, -1
217, 218, 236, -1
220, 219, 234, -1
230, 234, 233, -1
221, 220, 230, -1
226, 230, 229, -1
224, 226, 225, -1
216, 217, 227, -1
222, 221, 226, -1
223, 222, 224, -1
448, 21, 22, -1
21, 448, 447, -1
17, 442, 441, -1
87, 189, 17, -1
19, 445, 444, -1
442, 18, 19, -1
440, 442, 444, -1
444, 443, 439, -1
447, 446, 445, -1
447, 445, 20, -1
445, 443, 444, -1
17, 18, 442, -1
446, 448, 435, -1
434, 435, 448, -1
19, 20, 445, -1
438, 430, 434, -1
438, 434, 22, -1
443, 445, 446, -1
446, 435, 436, -1
442, 440, 441, -1
428, 429, 440, -1
427, 428, 439, -1
443, 436, 437, -1
86, 87, 441, -1
429, 86, 441, -1
436, 435, 432, -1
431, 432, 435, -1
24, 430, 438, -1
438, 23, 186, -1
434, 431, 435, -1
425, 426, 433, -1
433, 432, 424, -1
426, 427, 437, -1
437, 436, 433, -1
431, 430, 422, -1
430, 24, 25, -1
430, 431, 434, -1
432, 431, 423, -1
419, 420, 427, -1
418, 419, 426, -1
423, 422, 414, -1
422, 25, 26, -1
420, 421, 428, -1
417, 418, 425, -1
425, 424, 416, -1
85, 86, 429, -1
421, 85, 429, -1
424, 423, 415, -1
410, 411, 419, -1
409, 410, 418, -1
408, 409, 417, -1
417, 416, 407, -1
411, 412, 420, -1
393, 0, 402, -1
392, 393, 401, -1
84, 85, 421, -1
412, 84, 421, -1
406, 405, 395, -1
28, 395, 405, -1
415, 414, 405, -1
414, 26, 27, -1
413, 382, 390, -1
413, 390, 57, -1
391, 392, 400, -1
401, 402, 410, -1
400, 401, 409, -1
416, 415, 406, -1
349, 55, 399, -1
404, 367, 349, -1
403, 402, 0, -1
407, 406, 396, -1
402, 403, 411, -1
381, 382, 413, -1
58, 59, 381, -1
387, 391, 398, -1
386, 387, 398, -1
398, 391, 400, -1
83, 84, 412, -1
403, 83, 412, -1
57, 390, 388, -1
374, 378, 387, -1
373, 374, 387, -1
385, 386, 397, -1
398, 400, 408, -1
408, 407, 397, -1
404, 394, 377, -1
399, 394, 404, -1
372, 373, 386, -1
384, 385, 396, -1
185, 83, 403, -1
388, 394, 399, -1
55, 56, 399, -1
379, 392, 391, -1
387, 378, 391, -1
29, 384, 395, -1
376, 377, 394, -1
389, 376, 394, -1
393, 380, 1, -1
380, 393, 392, -1
56, 57, 388, -1
389, 375, 376, -1
372, 386, 385, -1
389, 388, 390, -1
390, 382, 383, -1
50, 51, 363, -1
345, 50, 363, -1
371, 372, 385, -1
369, 383, 382, -1
382, 381, 368, -1
383, 375, 389, -1
346, 345, 364, -1
30, 371, 384, -1
370, 375, 383, -1
351, 352, 372, -1
31, 351, 371, -1
365, 364, 376, -1
375, 370, 366, -1
366, 359, 348, -1
365, 366, 347, -1
379, 378, 361, -1
360, 361, 378, -1
358, 357, 342, -1
357, 356, 341, -1
355, 368, 381, -1
59, 350, 381, -1
354, 360, 374, -1
353, 374, 373, -1
273, 1, 380, -1
380, 379, 362, -1
363, 367, 377, -1
364, 363, 377, -1
351, 32, 282, -1
31, 32, 351, -1
352, 353, 373, -1
30, 31, 371, -1
63, 356, 355, -1
62, 63, 355, -1
357, 369, 368, -1
355, 356, 368, -1
52, 349, 367, -1
51, 52, 367, -1
49, 50, 345, -1
337, 49, 345, -1
361, 360, 303, -1
302, 303, 360, -1
352, 373, 372, -1
63, 64, 356, -1
359, 366, 370, -1
358, 370, 369, -1
47, 48, 329, -1
321, 47, 329, -1
272, 273, 362, -1
362, 361, 304, -1
344, 348, 359, -1
343, 359, 358, -1
338, 337, 346, -1
322, 321, 330, -1
352, 282, 283, -1
341, 65, 333, -1
64, 65, 341, -1
64, 341, 356, -1
48, 49, 337, -1
329, 48, 337, -1
285, 302, 354, -1
353, 283, 284, -1
60, 188, 61, -1
350, 59, 60, -1
340, 339, 348, -1
339, 338, 347, -1
330, 329, 338, -1
45, 46, 313, -1
305, 45, 313, -1
333, 66, 325, -1
65, 66, 333, -1
349, 53, 54, -1
52, 53, 349, -1
61, 62, 350, -1
332, 331, 340, -1
331, 330, 339, -1
46, 47, 321, -1
313, 46, 321, -1
306, 305, 314, -1
325, 67, 317, -1
66, 67, 325, -1
334, 325, 326, -1
342, 333, 334, -1
53, 187, 54, -1
324, 323, 332, -1
323, 322, 331, -1
314, 313, 322, -1
43, 44, 294, -1
286, 43, 294, -1
317, 68, 309, -1
67, 68, 317, -1
326, 317, 318, -1
344, 335, 336, -1
343, 334, 335, -1
316, 315, 324, -1
315, 314, 323, -1
44, 45, 305, -1
294, 44, 305, -1
223, 272, 304, -1
222, 223, 304, -1
309, 69, 298, -1
68, 69, 309, -1
318, 309, 310, -1
336, 327, 328, -1
335, 326, 327, -1
308, 307, 316, -1
307, 306, 315, -1
295, 294, 306, -1
42, 43, 286, -1
274, 42, 286, -1
221, 222, 303, -1
298, 70, 290, -1
69, 70, 298, -1
310, 298, 299, -1
328, 319, 320, -1
327, 318, 319, -1
297, 296, 308, -1
296, 295, 307, -1
287, 286, 295, -1
41, 42, 274, -1
274, 275, 264, -1
221, 303, 302, -1
278, 291, 290, -1
70, 71, 290, -1
299, 290, 291, -1
320, 311, 312, -1
319, 310, 311, -1
289, 288, 297, -1
288, 287, 296, -1
275, 274, 287, -1
39, 40, 256, -1
256, 257, 245, -1
220, 221, 302, -1
268, 279, 278, -1
71, 72, 278, -1
291, 278, 279, -1
312, 300, 301, -1
311, 299, 300, -1
277, 276, 289, -1
276, 275, 288, -1
275, 276, 265, -1
282, 33, 253, -1
32, 33, 282, -1
285, 220, 302, -1
279, 268, 269, -1
301, 292, 293, -1
300, 291, 292, -1
267, 266, 277, -1
266, 265, 276, -1
257, 258, 246, -1
283, 253, 254, -1
260, 269, 268, -1
72, 73, 268, -1
293, 280, 281, -1
292, 279, 280, -1
40, 41, 264, -1
264, 265, 256, -1
285, 255, 219, -1
284, 254, 255, -1
281, 270, 271, -1
280, 269, 270, -1
265, 266, 257, -1
184, 1, 273, -1
82, 273, 272, -1
249, 261, 260, -1
73, 74, 260, -1
269, 260, 261, -1
267, 263, 259, -1
266, 267, 258, -1
37, 38, 237, -1
237, 238, 216, -1
272, 223, 81, -1
271, 262, 263, -1
270, 261, 262, -1
38, 39, 245, -1
245, 246, 237, -1
238, 239, 217, -1
241, 250, 249, -1
74, 75, 249, -1
261, 249, 250, -1
259, 252, 248, -1
258, 259, 247, -1
219, 218, 240, -1
239, 240, 218, -1
241, 76, 231, -1
75, 76, 241, -1
263, 251, 252, -1
262, 250, 251, -1
246, 247, 238, -1
253, 34, 235, -1
33, 34, 253, -1
231, 77, 228, -1
76, 77, 231, -1
242, 231, 232, -1
250, 241, 242, -1
248, 244, 240, -1
247, 248, 239, -1
255, 236, 218, -1
254, 235, 236, -1
232, 228, 229, -1
252, 243, 244, -1
251, 242, 243, -1
235, 35, 227, -1
34, 35, 235, -1
228, 78, 225, -1
77, 78, 228, -1
244, 233, 234, -1
243, 232, 233, -1
236, 227, 217, -1
234, 230, 220, -1
233, 229, 230, -1
230, 226, 221, -1
229, 225, 226, -1
225, 79, 224, -1
78, 79, 225, -1
227, 36, 216, -1
35, 36, 227, -1
226, 224, 222, -1
224, 80, 223, -1
79, 80, 224, -1
36, 37, 216, -1
80, 81, 223, -1
14, 15, 215, -1
13, 215, 15, -1
16, 6, 213, -1
16, 214, 8, -1
214, 213, 212, -1
211, 212, 213, -1
212, 211, 210, -1
209, 210, 211, -1
210, 209, 206, -1
205, 206, 209, -1
184, 14, 207, -1
206, 205, 208, -1
215, 208, 207, -1
215, 207, 14, -1
13, 208, 215, -1
15, 185, 13, -1
213, 214, 16, -1
183, 6, 16, -1
13, 12, 208, -1
8, 182, 16, -1
9, 8, 214, -1
212, 9, 214, -1
213, 5, 211, -1
6, 5, 213, -1
10, 9, 212, -1
210, 10, 212, -1
211, 4, 209, -1
5, 4, 211, -1
11, 10, 210, -1
206, 11, 210, -1
209, 3, 205, -1
4, 3, 209, -1
207, 2, 184, -1
2, 207, 205, -1
205, 207, 208, -1
208, 12, 206, -1
3, 2, 205, -1
12, 11, 206, -1
7, 204, 203, -1
200, 5, 203, -1
7, 182, 8, -1
204, 9, 201, -1
13, 185, 0, -1
1, 198, 202, -1
196, 4, 200, -1
201, 10, 197, -1
195, 12, 199, -1
184, 2, 198, -1
194, 3, 196, -1
197, 11, 195, -1
6, 183, 7, -1
203, 6, 7, -1
5, 6, 203, -1
203, 201, 200, -1
8, 204, 7, -1
201, 203, 204, -1
8, 9, 204, -1
202, 199, 13, -1
0, 202, 13, -1
198, 199, 202, -1
202, 0, 1, -1
4, 5, 200, -1
200, 197, 196, -1
197, 200, 201, -1
9, 10, 201, -1
199, 12, 13, -1
199, 194, 195, -1
198, 194, 199, -1
2, 194, 198, -1
198, 1, 184, -1
3, 4, 196, -1
196, 195, 194, -1
195, 196, 197, -1
10, 11, 197, -1
195, 11, 12, -1
2, 3, 194, -1
182, 183, 16, -1
183, 182, 7, -1
    ]
   }
